SourceFiles/dump.vcd
$date
	Sun Nov 24 18:13:24 2024
$end
$version
	Icarus Verilog
$end
$timescale
	1ps
$end
$scope module TopPipeline_tb $end
$var reg 1 ! clk $end
$var reg 1 " rst $end
$scope module top_inst $end
$var wire 1 ! clk $end
$var wire 1 " rst $end
$var wire 32 # writedataM [31:0] $end
$var wire 5 $ rs2E [4:0] $end
$var wire 5 % rs1E [4:0] $end
$var wire 32 & resultW [31:0] $end
$var wire 1 ' regwriteW $end
$var wire 1 ( regwriteM $end
$var wire 1 ) regwriteE $end
$var wire 1 * regwrite $end
$var wire 32 + readdataW [31:0] $end
$var wire 5 , rdW [4:0] $end
$var wire 5 - rdM [4:0] $end
$var wire 5 . rdE [4:0] $end
$var wire 5 / rd [4:0] $end
$var wire 32 0 pcplus4W [31:0] $end
$var wire 32 1 pcplus4M [31:0] $end
$var wire 32 2 pcplus4E [31:0] $end
$var wire 32 3 pcplus4D [31:0] $end
$var wire 32 4 pcE [31:0] $end
$var wire 32 5 pcD [31:0] $end
$var wire 32 6 op2E [31:0] $end
$var wire 32 7 op1E [31:0] $end
$var wire 1 8 memwriteM $end
$var wire 1 9 memwriteE $end
$var wire 1 : memreadM $end
$var wire 1 ; memreadE $end
$var wire 32 < jumpoffset [31:0] $end
$var wire 1 = jumpE $end
$var wire 1 > isloadW $end
$var wire 1 ? isloadM $end
$var wire 1 @ isloadE $end
$var wire 1 A isimmediateE $end
$var wire 1 B isbranchtakenE $end
$var wire 32 C instrD [31:0] $end
$var wire 32 D immxE [31:0] $end
$var wire 2 E forwardbE [1:0] $end
$var wire 2 F forwardaE [1:0] $end
$var wire 1 G flush $end
$var wire 32 H branchtargetE [31:0] $end
$var wire 1 I branchE $end
$var wire 5 J alusignalE [4:0] $end
$var wire 32 K aluresultW [31:0] $end
$var wire 32 L aluresultM [31:0] $end
$scope module decode $end
$var wire 5 M alusignalE [4:0] $end
$var wire 1 I branchE $end
$var wire 1 ! clk $end
$var wire 1 A isimmediateE $end
$var wire 1 @ isloadE $end
$var wire 1 = jumpE $end
$var wire 1 ; memreadE $end
$var wire 1 9 memwriteE $end
$var wire 32 N pcE [31:0] $end
$var wire 5 O rdE [4:0] $end
$var wire 1 ) regwriteE $end
$var wire 1 " rst $end
$var wire 28 P shiftedJumpOffset [27:0] $end
$var wire 5 Q rs2E [4:0] $end
$var wire 5 R rs1E [4:0] $end
$var wire 32 S resultW [31:0] $end
$var wire 1 ' regwriteW $end
$var wire 1 T regwriteD $end
$var wire 1 U regdestD $end
$var wire 5 V rdW [4:0] $end
$var wire 32 W pcplus4E [31:0] $end
$var wire 32 X pcplus4D [31:0] $end
$var wire 32 Y pcD [31:0] $end
$var wire 32 Z op2E [31:0] $end
$var wire 32 [ op2D [31:0] $end
$var wire 32 \ op1E [31:0] $end
$var wire 32 ] op1D [31:0] $end
$var wire 1 ^ memwriteD $end
$var wire 1 _ memreadD $end
$var wire 32 ` jumpoffset [31:0] $end
$var wire 1 a jumpD $end
$var wire 1 b isloadD $end
$var wire 1 c isimmediateD $end
$var wire 32 d instrD [31:0] $end
$var wire 32 e immxE [31:0] $end
$var wire 32 f immxD [31:0] $end
$var wire 32 g fullJumpOffset [31:0] $end
$var wire 1 G flush $end
$var wire 1 h branchD $end
$var wire 5 i alusignalD [4:0] $end
$var wire 2 j aluopD [1:0] $end
$var reg 5 k alusignal_r [4:0] $end
$var reg 1 I branchD_r $end
$var reg 32 l immx_r [31:0] $end
$var reg 1 A isimmediateD_r $end
$var reg 1 m isloadD_r $end
$var reg 1 = jumpD_r $end
$var reg 32 n jumpoffset_r [31:0] $end
$var reg 1 o memreadD_r $end
$var reg 1 p memwriteD_r $end
$var reg 32 q op1_r [31:0] $end
$var reg 32 r op2_r [31:0] $end
$var reg 32 s pc_r [31:0] $end
$var reg 32 t pcplus4_r [31:0] $end
$var reg 5 u rd_r [4:0] $end
$var reg 1 v regwriteD_r $end
$var reg 5 w rs1_r [4:0] $end
$var reg 5 x rs2_r [4:0] $end
$scope module Alu_control $end
$var wire 6 y funct [5:0] $end
$var wire 6 z opcode [5:0] $end
$var wire 2 { ALUop [1:0] $end
$var reg 5 | ALUsignal [4:0] $end
$upscope $end
$scope module control_unit $end
$var wire 6 } opcode [5:0] $end
$var wire 32 ~ IR [31:0] $end
$var reg 1 c ALUSrc $end
$var reg 2 !" AluOp [1:0] $end
$var reg 1 h Branch $end
$var reg 1 a Jump $end
$var reg 1 _ MemRead $end
$var reg 1 b MemToReg $end
$var reg 1 ^ MemWrite $end
$var reg 1 U RegDest $end
$var reg 1 T RegWrite $end
$upscope $end
$scope module jump_concat $end
$var wire 4 "" pcUpperBits [3:0] $end
$var wire 28 #" shiftedAddress [27:0] $end
$var reg 32 $" result [31:0] $end
$upscope $end
$scope module jump_shift $end
$var wire 26 %" inData [25:0] $end
$var reg 28 &" outData [27:0] $end
$upscope $end
$scope module register_file $end
$var wire 32 '" o1 [31:0] $end
$var wire 32 (" o2 [31:0] $end
$var wire 32 )" o3 [31:0] $end
$var wire 32 *" o4 [31:0] $end
$var wire 32 +" o5 [31:0] $end
$var wire 32 ," o6 [31:0] $end
$var wire 5 -" read_reg1 [4:0] $end
$var wire 5 ." read_reg2 [4:0] $end
$var wire 1 " rst $end
$var wire 5 /" write_reg [4:0] $end
$var wire 32 0" write_data [31:0] $end
$var wire 32 1" op2 [31:0] $end
$var wire 32 2" op1 [31:0] $end
$var wire 1 ' isWB $end
$var integer 32 3" i [31:0] $end
$upscope $end
$scope module sign_extender $end
$var wire 16 4" inData [15:0] $end
$var reg 32 5" outData [31:0] $end
$upscope $end
$upscope $end
$scope module execute $end
$var wire 32 6" aluresultM [31:0] $end
$var wire 5 7" alusignalE [4:0] $end
$var wire 1 I branchE $end
$var wire 32 8" branchtargetE [31:0] $end
$var wire 1 ! clk $end
$var wire 32 9" immxE [31:0] $end
$var wire 1 B isbranchtakenE $end
$var wire 1 A isimmediateE $end
$var wire 1 @ isloadE $end
$var wire 1 ? isloadM $end
$var wire 1 = jumpE $end
$var wire 32 :" jumpoffset [31:0] $end
$var wire 1 ; memreadE $end
$var wire 1 : memreadM $end
$var wire 1 9 memwriteE $end
$var wire 1 8 memwriteM $end
$var wire 32 ;" op1E [31:0] $end
$var wire 32 <" op2E [31:0] $end
$var wire 32 =" pcE [31:0] $end
$var wire 32 >" pcplus4E [31:0] $end
$var wire 32 ?" pcplus4M [31:0] $end
$var wire 5 @" rdE [4:0] $end
$var wire 5 A" rdM [4:0] $end
$var wire 1 ) regwriteE $end
$var wire 1 ( regwriteM $end
$var wire 5 B" rs1E [4:0] $end
$var wire 5 C" rs2E [4:0] $end
$var wire 1 " rst $end
$var wire 32 D" writedataM [31:0] $end
$var wire 32 E" shifted_branch [31:0] $end
$var wire 32 F" resultW [31:0] $end
$var wire 32 G" readdataW [31:0] $end
$var wire 32 H" nextPCBranch [31:0] $end
$var wire 32 I" lo [31:0] $end
$var wire 32 J" hi [31:0] $end
$var wire 2 K" forwardbE [1:0] $end
$var wire 2 L" forwardaE [1:0] $end
$var wire 32 M" aluresultW [31:0] $end
$var wire 32 N" Src_B_interm [31:0] $end
$var wire 32 O" Src_B [31:0] $end
$var wire 32 P" Src_A [31:0] $end
$var wire 32 Q" ResultE [31:0] $end
$var wire 32 R" Branch [31:0] $end
$var reg 1 S" MemReadE_r $end
$var reg 1 T" MemWriteE_r $end
$var reg 32 U" PCPlus4E_r [31:0] $end
$var reg 5 V" RD_E_r [4:0] $end
$var reg 1 ( RegWriteE_r $end
$var reg 32 W" ResultE_r [31:0] $end
$var reg 32 X" branchTargetE_r [31:0] $end
$var reg 1 Y" isLoadE_r $end
$var reg 32 Z" op2E_r [31:0] $end
$scope module PC_branch $end
$var wire 32 [" input1 [31:0] $end
$var wire 32 \" out [31:0] $end
$var wire 32 ]" input2 [31:0] $end
$upscope $end
$scope module alu $end
$var wire 5 ^" alusignal [4:0] $end
$var wire 64 _" p [63:0] $end
$var wire 32 `" b [31:0] $end
$var wire 32 a" a [31:0] $end
$var reg 32 b" hi [31:0] $end
$var reg 32 c" lo [31:0] $end
$var reg 32 d" result [31:0] $end
$upscope $end
$scope module alu_src_mux $end
$var wire 32 e" input2 [31:0] $end
$var wire 1 A selection_line $end
$var wire 32 f" out [31:0] $end
$var wire 32 g" input1 [31:0] $end
$upscope $end
$scope module branchPC $end
$var wire 32 h" input1 [31:0] $end
$var wire 32 i" input2 [31:0] $end
$var wire 1 = selection_line $end
$var wire 32 j" out [31:0] $end
$upscope $end
$scope module branch_shift $end
$var wire 32 k" inData [31:0] $end
$var reg 32 l" outData [31:0] $end
$upscope $end
$scope module muxa $end
$var wire 32 m" input1 [31:0] $end
$var wire 32 n" input3 [31:0] $end
$var wire 2 o" selection_line [1:0] $end
$var wire 32 p" out [31:0] $end
$var wire 32 q" input4 [31:0] $end
$var wire 32 r" input2 [31:0] $end
$upscope $end
$scope module muxb $end
$var wire 32 s" input1 [31:0] $end
$var wire 32 t" input3 [31:0] $end
$var wire 2 u" selection_line [1:0] $end
$var wire 32 v" out [31:0] $end
$var wire 32 w" input4 [31:0] $end
$var wire 32 x" input2 [31:0] $end
$upscope $end
$upscope $end
$scope module fetch $end
$var wire 32 y" branchtargetE [31:0] $end
$var wire 1 ! clk $end
$var wire 32 z" instrD [31:0] $end
$var wire 1 B isbranchtakenE $end
$var wire 32 {" pcD [31:0] $end
$var wire 32 |" pcplus4D [31:0] $end
$var wire 1 " rst $end
$var wire 32 }" pcf [31:0] $end
$var wire 32 ~" pc_plus4f [31:0] $end
$var wire 32 !# pc_next [31:0] $end
$var wire 32 "# instrf [31:0] $end
$var wire 1 G flush $end
$var reg 32 ## InstrF_r [31:0] $end
$var reg 32 $# PCF_r [31:0] $end
$var reg 32 %# PC_Plus4F_r [31:0] $end
$scope module IM $end
$var wire 32 &# pc [31:0] $end
$var reg 32 '# data [31:0] $end
$var reg 32 (# ir [31:0] $end
$var integer 32 )# file [31:0] $end
$var integer 32 *# i [31:0] $end
$upscope $end
$scope module PC_adder $end
$var wire 32 +# input2 [31:0] $end
$var wire 32 ,# out [31:0] $end
$var wire 32 -# input1 [31:0] $end
$upscope $end
$scope module PC_mux $end
$var wire 32 .# input1 [31:0] $end
$var wire 32 /# input2 [31:0] $end
$var wire 1 B selection_line $end
$var wire 32 0# out [31:0] $end
$upscope $end
$scope module PCmodule $end
$var wire 1 ! clk $end
$var wire 32 1# input1 [31:0] $end
$var wire 1 " rst $end
$var reg 32 2# out [31:0] $end
$upscope $end
$upscope $end
$scope module hazard $end
$var wire 1 B isbranchtakenE $end
$var wire 5 3# rdM [4:0] $end
$var wire 1 ( regwriteM $end
$var wire 5 4# rs1E [4:0] $end
$var wire 5 5# rs2E [4:0] $end
$var wire 1 " rst $end
$var wire 1 * regwrite $end
$var wire 5 6# rd [4:0] $end
$var wire 1 > isloadW $end
$var wire 2 7# forwardbE [1:0] $end
$var wire 2 8# forwardaE [1:0] $end
$var wire 1 G flush $end
$upscope $end
$scope module memory $end
$var wire 32 9# aluresultM [31:0] $end
$var wire 32 :# aluresultW [31:0] $end
$var wire 1 ! clock $end
$var wire 1 ? isloadM $end
$var wire 1 > isloadW $end
$var wire 1 : memreadM $end
$var wire 1 8 memwriteM $end
$var wire 32 ;# pcplus4M [31:0] $end
$var wire 32 <# pcplus4W [31:0] $end
$var wire 5 =# rdM [4:0] $end
$var wire 32 ># readdataW [31:0] $end
$var wire 1 ( regwriteM $end
$var wire 1 " rst $end
$var wire 32 ?# writedataM [31:0] $end
$var wire 1 * regwrite $end
$var wire 32 @# readDataM [31:0] $end
$var wire 5 A# rd [4:0] $end
$var reg 32 B# aluresultM_r [31:0] $end
$var reg 1 > isloadM_r $end
$var reg 32 C# pcplus4M_r [31:0] $end
$var reg 5 D# rdM_r [4:0] $end
$var reg 32 E# readdataM_r [31:0] $end
$var reg 1 * regwriteM_r $end
$scope module dmem $end
$var wire 32 F# address [31:0] $end
$var wire 1 : memread $end
$var wire 1 8 memwrite $end
$var wire 32 G# o1 [31:0] $end
$var wire 32 H# writedata [31:0] $end
$var wire 7 I# addr_index [6:0] $end
$var reg 32 J# readdata [31:0] $end
$var integer 32 K# i [31:0] $end
$upscope $end
$upscope $end
$scope module writeback $end
$var wire 32 L# aluresultW [31:0] $end
$var wire 1 ! clk $end
$var wire 1 > isloadW $end
$var wire 32 M# pcplus4W [31:0] $end
$var wire 5 N# rd [4:0] $end
$var wire 5 O# rdW [4:0] $end
$var wire 32 P# readdataW [31:0] $end
$var wire 1 * regwrite $end
$var wire 1 ' regwriteW $end
$var wire 1 " rst $end
$var wire 32 Q# resultW [31:0] $end
$scope module writeback_mux $end
$var wire 32 R# input1 [31:0] $end
$var wire 32 S# input2 [31:0] $end
$var wire 1 > selection_line $end
$var wire 32 T# out [31:0] $end
$upscope $end
$upscope $end
$upscope $end
$upscope $end
$enddefinitions $end
#0
$dumpvars
bx T#
bx S#
bx R#
bx Q#
bx P#
bx O#
bx N#
bx M#
bx L#
b10000000 K#
bx J#
bx I#
bx H#
b10001001100 G#
bx F#
bx E#
bx D#
bx C#
bx B#
bx A#
bx @#
bx ?#
bx >#
bx =#
bx <#
bx ;#
bx :#
bx 9#
b0 8#
b0 7#
bx 6#
bx 5#
bx 4#
bx 3#
bx 2#
bx 1#
bx 0#
bx /#
bx .#
bx -#
bx ,#
b100 +#
b1000 *#
b10000000000000000000000000000011 )#
bx (#
b1000000000000000000000000011 '#
bx &#
bx %#
bx $#
bx ##
bx "#
bx !#
bx ~"
bx }"
bx |"
bx {"
bx z"
bx y"
bx x"
bx w"
bx v"
b0 u"
bx t"
bx s"
bx r"
bx q"
bx p"
b0 o"
bx n"
bx m"
bx l"
bx k"
bx j"
bx i"
bx h"
bx g"
bx f"
bx e"
b0 d"
b0 c"
b0 b"
bx a"
bx `"
bx _"
bx ^"
bx ]"
bx \"
bx ["
bx Z"
xY"
bx X"
bx W"
bx V"
bx U"
xT"
xS"
bx R"
b0 Q"
bx P"
bx O"
bx N"
bx M"
b0 L"
b0 K"
b0 J"
b0 I"
bx H"
bx G"
bx F"
bx E"
bx D"
bx C"
bx B"
bx A"
bx @"
bx ?"
bx >"
bx ="
bx <"
bx ;"
bx :"
bx 9"
bx 8"
bx 7"
bx 6"
bx 5"
bx 4"
b100000 3"
b0 2"
b0 1"
bx 0"
bx /"
bx ."
bx -"
b0 ,"
b1 +"
b11111111111111111111111110100110 *"
b111 )"
b101 ("
b100 '"
bx &"
bx %"
bx $"
bx #"
bx ""
bx !"
bx ~
bx }
bx |
bx {
bx z
bx y
bx x
bx w
xv
bx u
bx t
bx s
bx r
bx q
xp
xo
bx n
xm
bx l
bx k
bx j
bx i
xh
bx g
bx f
bx e
bx d
xc
xb
xa
bx `
x_
x^
b0 ]
bx \
b0 [
bx Z
bx Y
bx X
bx W
bx V
xU
xT
bx S
bx R
bx Q
bx P
bx O
bx N
bx M
bx L
bx K
bx J
xI
bx H
0G
b0 F
b0 E
bx D
bx C
xB
xA
x@
x?
x>
x=
bx <
x;
x:
x9
x8
bx 7
bx 6
bx 5
bx 4
bx 3
bx 2
bx 1
bx 0
bx /
bx .
bx -
bx ,
bx +
x*
x)
x(
x'
bx &
bx %
bx $
bx #
1"
0!
$end
#5000
b10 i
b10 |
b100000000000010000000000000001 "#
b100000000000010000000000000001 (#
0a
0h
0b
0^
0_
0c
0T
0U
b0 j
b0 {
b0 !"
b0 P
b0 #"
b0 &"
b0 f
b0 5"
b0 g
b0 $"
b0 H
b0 8"
b0 y"
b0 /#
b0 R"
b0 j"
b0 _"
b0 O"
b0 `"
b0 f"
b100 !#
b100 0#
b100 1#
b0 z
b0 y
b0 %"
b0 4"
b0 ."
b0 -"
b0 }
b0 ""
b0 H"
b0 \"
b0 h"
b0 E"
b0 ]"
b0 l"
b0 N"
b0 g"
b0 v"
b0 P"
b0 a"
b0 p"
0B
b0 Q"
b0 d"
b0 I#
b0 &
b0 S
b0 0"
b0 F"
b0 Q#
b0 T#
b100 ~"
b100 ,#
b100 .#
b0 }"
b0 &#
b0 -#
b0 2#
b0 5
b0 Y
b0 {"
b0 $#
b0 C
b0 d
b0 ~
b0 z"
b0 ##
b0 3
b0 X
b0 |"
b0 %#
b0 <
b0 `
b0 n
b0 :"
b0 i"
b0 $
b0 Q
b0 x
b0 C"
b0 5#
b0 %
b0 R
b0 w
b0 B"
b0 4#
b0 2
b0 W
b0 t
b0 >"
b0 ["
b0 4
b0 N
b0 ="
b0 s
b0 .
b0 O
b0 @"
b0 u
b0 D
b0 e
b0 l
b0 9"
b0 e"
b0 k"
b0 6
b0 Z
b0 r
b0 <"
b0 s"
b0 7
b0 \
b0 q
b0 ;"
b0 m"
0=
0I
0;
0o
0@
0m
09
0p
0A
0)
0v
b0 J
b0 M
b0 7"
b0 ^"
b0 k
b0 #
b0 D"
b0 ?#
b0 H#
b0 Z"
b0 X"
b0 L
b0 6"
b0 W"
b0 n"
b0 t"
b0 9#
b0 F#
b0 1
b0 ?"
b0 ;#
b0 U"
b0 -
b0 A"
b0 V"
b0 3#
b0 =#
0:
0S"
0?
0Y"
08
0T"
0(
0>
0'
0*
b0 ,
b0 V
b0 /"
b0 O#
b0 /
b0 6#
b0 A#
b0 D#
b0 N#
b0 +
b0 G"
b0 q"
b0 w"
b0 >#
b0 E#
b0 P#
b0 S#
b0 K
b0 M"
b0 r"
b0 x"
b0 :#
b0 B#
b0 L#
b0 R#
b0 0
b0 <#
b0 M#
b0 C#
1!
#7000
0"
#10000
0!
#15000
1c
1T
0U
b0 j
b0 {
b0 !"
b100000000000100000000000001010 "#
b100000000000100000000000001010 (#
b1000000000000000100 g
b1000000000000000100 $"
b1000000000000000100 P
b1000000000000000100 #"
b1000000000000000100 &"
b1 f
b1 5"
b100 [
b100 1"
b1000 z
b1 y
b10000000000000001 %"
b1 4"
b1 ."
b1000 }
b1000 !#
b1000 0#
b1000 1#
bx +
bx G"
bx q"
bx w"
bx >#
bx E#
bx P#
bx S#
b10 J
b10 M
b10 7"
b10 ^"
b10 k
b100000000000010000000000000001 C
b100000000000010000000000000001 d
b100000000000010000000000000001 ~
b100000000000010000000000000001 z"
b100000000000010000000000000001 ##
b100 3
b100 X
b100 |"
b100 %#
b1000 ~"
b1000 ,#
b1000 .#
b100 }"
b100 &#
b100 -#
b100 2#
1!
#20000
0!
#25000
b100000000000110000000000000001 "#
b100000000000110000000000000001 (#
b10000000000000101000 g
b10000000000000101000 $"
b10000000000000101000 P
b10000000000000101000 #"
b10000000000000101000 &"
b1010 f
b1010 5"
b101 [
b101 1"
b1 Q"
b1 d"
b1100 !#
b1100 0#
b1100 1#
b1010 y
b100000000000001010 %"
b1010 4"
b10 ."
b1000 H
b1000 8"
b1000 y"
b1000 /#
b1000 R"
b1000 j"
b100 E"
b100 ]"
b100 l"
b100 N"
b100 g"
b100 v"
b1 O"
b1 `"
b1 f"
b1100 ~"
b1100 ,#
b1100 .#
b1000 }"
b1000 &#
b1000 -#
b1000 2#
b100 5
b100 Y
b100 {"
b100 $#
b100000000000100000000000001010 C
b100000000000100000000000001010 d
b100000000000100000000000001010 ~
b100000000000100000000000001010 z"
b100000000000100000000000001010 ##
b1000 3
b1000 X
b1000 |"
b1000 %#
b1000000000000000100 <
b1000000000000000100 `
b1000000000000000100 n
b1000000000000000100 :"
b1000000000000000100 i"
b1 $
b1 Q
b1 x
b1 C"
b1 5#
b1000 H"
b1000 \"
b1000 h"
b100 2
b100 W
b100 t
b100 >"
b100 ["
b1 .
b1 O
b1 @"
b1 u
b1 D
b1 e
b1 l
b1 9"
b1 e"
b1 k"
b100 6
b100 Z
b100 r
b100 <"
b100 s"
1A
1)
1v
1!
#30000
0!
#35000
b10000010000000000000000000100 "#
b10000010000000000000000000100 (#
b11000000000000000100 g
b11000000000000000100 $"
b1010 Q"
b1010 d"
b11000000000000000100 P
b11000000000000000100 #"
b11000000000000000100 &"
b1 f
b1 5"
b111 [
b111 1"
b1 I#
b110000 H
b110000 8"
b110000 y"
b110000 /#
b110000 R"
b110000 j"
b1010 O"
b1010 `"
b1010 f"
b101000 E"
b101000 ]"
b101000 l"
b101 N"
b101 g"
b101 v"
b1 y
b110000000000000001 %"
b1 4"
b11 ."
b10000 !#
b10000 0#
b10000 1#
b100 #
b100 D"
b100 ?#
b100 H#
b100 Z"
b1000 X"
b1 L
b1 6"
b1 W"
b1 n"
b1 t"
b1 9#
b1 F#
b100 1
b100 ?"
b100 ;#
b100 U"
b1 -
b1 A"
b1 V"
b1 3#
b1 =#
1(
b10000000000000101000 <
b10000000000000101000 `
b10000000000000101000 n
b10000000000000101000 :"
b10000000000000101000 i"
b10 $
b10 Q
b10 x
b10 C"
b10 5#
b110000 H"
b110000 \"
b110000 h"
b1000 2
b1000 W
b1000 t
b1000 >"
b1000 ["
b100 4
b100 N
b100 ="
b100 s
b10 .
b10 O
b10 @"
b10 u
b1010 D
b1010 e
b1010 l
b1010 9"
b1010 e"
b1010 k"
b101 6
b101 Z
b101 r
b101 <"
b101 s"
b1000 5
b1000 Y
b1000 {"
b1000 $#
b100000000000110000000000000001 C
b100000000000110000000000000001 d
b100000000000110000000000000001 ~
b100000000000110000000000000001 z"
b100000000000110000000000000001 ##
b1100 3
b1100 X
b1100 |"
b1100 %#
b10000 ~"
b10000 ,#
b10000 .#
b1100 }"
b1100 &#
b1100 -#
b1100 2#
1!
#40000
0!
#45000
b101 i
b101 |
1h
0c
0T
b1 j
b1 {
b1 !"
b1000100000000000011000 "#
b1000100000000000011000 (#
b1 '"
b1000000000000000000010000 g
b1000000000000000000010000 $"
b1000000000000000000010000 P
b1000000000000000000010000 #"
b1000000000000000000010000 &"
b100 f
b100 5"
b0 [
b0 1"
b101 ]
b101 2"
b1 Q"
b1 d"
b10100 !#
b10100 0#
b10100 1#
b100 z
b100 y
b10000000000000000000100 %"
b100 4"
b0 ."
b10 -"
b100 }
b10000 H
b10000 8"
b10000 y"
b10000 /#
b10000 R"
b10000 j"
b1 O"
b1 `"
b1 f"
b100 E"
b100 ]"
b100 l"
b111 N"
b111 g"
b111 v"
b1010 I#
b1 &
b1 S
b1 0"
b1 F"
b1 Q#
b1 T#
b10100 ~"
b10100 ,#
b10100 .#
b10000 }"
b10000 &#
b10000 -#
b10000 2#
b1100 5
b1100 Y
b1100 {"
b1100 $#
b10000010000000000000000000100 C
b10000010000000000000000000100 d
b10000010000000000000000000100 ~
b10000010000000000000000000100 z"
b10000010000000000000000000100 ##
b10000 3
b10000 X
b10000 |"
b10000 %#
b11000000000000000100 <
b11000000000000000100 `
b11000000000000000100 n
b11000000000000000100 :"
b11000000000000000100 i"
b11 $
b11 Q
b11 x
b11 C"
b11 5#
b10000 H"
b10000 \"
b10000 h"
b1100 2
b1100 W
b1100 t
b1100 >"
b1100 ["
b1000 4
b1000 N
b1000 ="
b1000 s
b11 .
b11 O
b11 @"
b11 u
b1 D
b1 e
b1 l
b1 9"
b1 e"
b1 k"
b111 6
b111 Z
b111 r
b111 <"
b111 s"
b101 #
b101 D"
b101 ?#
b101 H#
b101 Z"
b110000 X"
b1010 L
b1010 6"
b1010 W"
b1010 n"
b1010 t"
b1010 9#
b1010 F#
b1000 1
b1000 ?"
b1000 ;#
b1000 U"
b10 -
b10 A"
b10 V"
b10 3#
b10 =#
b1 K
b1 M"
b1 r"
b1 x"
b1 :#
b1 B#
b1 L#
b1 R#
b100 0
b100 <#
b100 M#
b100 C#
b1 ,
b1 V
b1 /"
b1 O#
b1 /
b1 6#
b1 A#
b1 D#
b1 N#
1'
1*
1!
#50000
0!
#55000
b1001 i
b1001 |
0h
1T
1U
b10 j
b10 {
b10 !"
b1010 ("
b100000011101 "#
b100000011101 (#
0G
0B
b1 F
b1 L"
b1 o"
b1 8#
b100010000000000001100000 g
b100010000000000001100000 $"
b100010000000000001100000 P
b100010000000000001100000 #"
b100010000000000001100000 &"
b11000 f
b11000 5"
b1010 [
b1010 1"
b1 ]
b1 2"
b1010 &
b1010 S
b1010 0"
b1010 F"
b1010 Q#
b1010 T#
b1 I#
b100000 H
b100000 8"
b100000 y"
b100000 /#
b100000 R"
b100000 j"
b10000 E"
b10000 ]"
b10000 l"
b0 N"
b0 g"
b0 v"
b0 _"
b1010 P"
b1010 a"
b1010 p"
b0 O"
b0 `"
b0 f"
b0 Q"
b0 d"
b0 z
b11000 y
b1000100000000000011000 %"
b11000 4"
b10 ."
b1 -"
b0 }
b11000 !#
b11000 0#
b11000 1#
b1010 K
b1010 M"
b1010 r"
b1010 x"
b1010 :#
b1010 B#
b1010 L#
b1010 R#
b1000 0
b1000 <#
b1000 M#
b1000 C#
b10 ,
b10 V
b10 /"
b10 O#
b10 /
b10 6#
b10 A#
b10 D#
b10 N#
b111 #
b111 D"
b111 ?#
b111 H#
b111 Z"
b10000 X"
b1 L
b1 6"
b1 W"
b1 n"
b1 t"
b1 9#
b1 F#
b1100 1
b1100 ?"
b1100 ;#
b1100 U"
b11 -
b11 A"
b11 V"
b11 3#
b11 =#
b1000000000000000000010000 <
b1000000000000000000010000 `
b1000000000000000000010000 n
b1000000000000000000010000 :"
b1000000000000000000010000 i"
b0 $
b0 Q
b0 x
b0 C"
b0 5#
b10 %
b10 R
b10 w
b10 B"
b10 4#
b100000 H"
b100000 \"
b100000 h"
b10000 2
b10000 W
b10000 t
b10000 >"
b10000 ["
b1100 4
b1100 N
b1100 ="
b1100 s
b0 .
b0 O
b0 @"
b0 u
b100 D
b100 e
b100 l
b100 9"
b100 e"
b100 k"
b0 6
b0 Z
b0 r
b0 <"
b0 s"
b101 7
b101 \
b101 q
b101 ;"
b101 m"
1I
0A
0)
0v
b101 J
b101 M
b101 7"
b101 ^"
b101 k
b10000 5
b10000 Y
b10000 {"
b10000 $#
b1000100000000000011000 C
b1000100000000000011000 d
b1000100000000000011000 ~
b1000100000000000011000 z"
b1000100000000000011000 ##
b10100 3
b10100 X
b10100 |"
b10100 %#
b11000 ~"
b11000 ,#
b11000 .#
b10100 }"
b10100 &#
b10100 -#
b10100 2#
1!
#60000
0!
#65000
b10000110001000000100010 "#
b10000110001000000100010 (#
b1 )"
b0 F
b0 L"
b0 o"
b0 8#
b10000001110100 g
b10000001110100 $"
b1010 I"
b1010 c"
b10001 i
b10001 |
b10000001110100 P
b10000001110100 #"
b10000001110100 &"
b100000011101 f
b100000011101 5"
b0 [
b0 1"
b0 ]
b0 2"
b1010 _"
b1010 O"
b1010 `"
b1010 f"
b1 P"
b1 a"
b1 p"
b11100 !#
b11100 0#
b11100 1#
b11101 y
b100000011101 %"
b100000011101 4"
b0 ."
b0 -"
b1110100 H
b1110100 8"
b1110100 y"
b1110100 /#
b1110100 R"
b1110100 j"
b1100000 E"
b1100000 ]"
b1100000 l"
b1010 N"
b1010 g"
b1010 v"
b0 I#
b1 &
b1 S
b1 0"
b1 F"
b1 Q#
b1 T#
b11100 ~"
b11100 ,#
b11100 .#
b11000 }"
b11000 &#
b11000 -#
b11000 2#
b10100 5
b10100 Y
b10100 {"
b10100 $#
b100000011101 C
b100000011101 d
b100000011101 ~
b100000011101 z"
b100000011101 ##
b11000 3
b11000 X
b11000 |"
b11000 %#
b100010000000000001100000 <
b100010000000000001100000 `
b100010000000000001100000 n
b100010000000000001100000 :"
b100010000000000001100000 i"
b10 $
b10 Q
b10 x
b10 C"
b10 5#
b1 %
b1 R
b1 w
b1 B"
b1 4#
b1110100 H"
b1110100 \"
b1110100 h"
b10100 2
b10100 W
b10100 t
b10100 >"
b10100 ["
b10000 4
b10000 N
b10000 ="
b10000 s
b11000 D
b11000 e
b11000 l
b11000 9"
b11000 e"
b11000 k"
b1010 6
b1010 Z
b1010 r
b1010 <"
b1010 s"
b1 7
b1 \
b1 q
b1 ;"
b1 m"
0I
1)
1v
b1001 J
b1001 M
b1001 7"
b1001 ^"
b1001 k
b0 #
b0 D"
b0 ?#
b0 H#
b0 Z"
b100000 X"
b0 L
b0 6"
b0 W"
b0 n"
b0 t"
b0 9#
b0 F#
b10000 1
b10000 ?"
b10000 ;#
b10000 U"
b0 -
b0 A"
b0 V"
b0 3#
b0 =#
0(
b1 K
b1 M"
b1 r"
b1 x"
b1 :#
b1 B#
b1 L#
b1 R#
b1100 0
b1100 <#
b1100 M#
b1100 C#
b11 ,
b11 V
b11 /"
b11 O#
b11 /
b11 6#
b11 A#
b11 D#
b11 N#
1!
#70000
0!
