SourceFiles/dump.vcd
$date
	Fri Nov 22 23:38:34 2024
$end
$version
	Icarus Verilog
$end
$timescale
	1ps
$end
$scope module TopPipeline_tb $end
$var reg 1 ! clk $end
$var reg 1 " rst $end
$scope module top_inst $end
$var wire 1 ! clk $end
$var wire 1 " rst $end
$var wire 32 # writedataM [31:0] $end
$var wire 5 $ rs2E [4:0] $end
$var wire 5 % rs1E [4:0] $end
$var wire 32 & resultW [31:0] $end
$var wire 1 ' regwriteW $end
$var wire 1 ( regwriteM $end
$var wire 1 ) regwriteE $end
$var wire 1 * regwrite $end
$var wire 32 + readdataW [31:0] $end
$var wire 5 , rdW [4:0] $end
$var wire 5 - rdM [4:0] $end
$var wire 5 . rdE [4:0] $end
$var wire 5 / rd [4:0] $end
$var wire 32 0 pcplus4W [31:0] $end
$var wire 32 1 pcplus4M [31:0] $end
$var wire 32 2 pcplus4E [31:0] $end
$var wire 32 3 pcplus4D [31:0] $end
$var wire 32 4 pcf [31:0] $end
$var wire 32 5 pcE [31:0] $end
$var wire 32 6 pcD [31:0] $end
$var wire 32 7 op2E [31:0] $end
$var wire 32 8 op1E [31:0] $end
$var wire 1 9 memwriteM $end
$var wire 1 : memwriteE $end
$var wire 1 ; memreadM $end
$var wire 1 < memreadE $end
$var wire 32 = jumpoffset [31:0] $end
$var wire 1 > jumpE $end
$var wire 1 ? isloadW $end
$var wire 1 @ isloadM $end
$var wire 1 A isloadE $end
$var wire 1 B isimmediateE $end
$var wire 1 C isbranchtakenE $end
$var wire 32 D instrD [31:0] $end
$var wire 32 E immxE [31:0] $end
$var wire 2 F forwardbE [1:0] $end
$var wire 2 G forwardaE [1:0] $end
$var wire 1 H flush $end
$var wire 32 I branchtargetE [31:0] $end
$var wire 1 J branchE $end
$var wire 4 K alusignalE [3:0] $end
$var wire 32 L aluresultW [31:0] $end
$var wire 32 M aluresultM [31:0] $end
$scope module decode $end
$var wire 1 ! clk $end
$var wire 1 " rst $end
$var wire 5 N rs2D [4:0] $end
$var wire 5 O rs1D [4:0] $end
$var wire 32 P resultW [31:0] $end
$var wire 1 ' regwriteW $end
$var wire 1 Q regwriteDCH $end
$var wire 1 R regwriteD $end
$var wire 1 S regdestD $end
$var wire 5 T rdW [4:0] $end
$var wire 5 U rdD [4:0] $end
$var wire 32 V pcplus4D [31:0] $end
$var wire 32 W pcD [31:0] $end
$var wire 32 X op2D [31:0] $end
$var wire 32 Y op1D [31:0] $end
$var wire 1 Z memwriteDCH $end
$var wire 1 [ memwriteD $end
$var wire 1 \ memreadDCH $end
$var wire 1 ] memreadD $end
$var wire 1 ^ jumpDCH $end
$var wire 1 _ jumpD $end
$var wire 1 ` isloadDCH $end
$var wire 1 a isloadD $end
$var wire 1 b isimmediateDCH $end
$var wire 1 c isimmediateD $end
$var wire 32 d instrD [31:0] $end
$var wire 32 e immxD [31:0] $end
$var wire 32 f fullJumpOffset [31:0] $end
$var wire 5 g flushedRs2D [4:0] $end
$var wire 5 h flushedRs1D [4:0] $end
$var wire 5 i flushedRdD [4:0] $end
$var wire 32 j flushedPcplus4D [31:0] $end
$var wire 32 k flushedPcD [31:0] $end
$var wire 32 l flushedOp2D [31:0] $end
$var wire 32 m flushedOp1D [31:0] $end
$var wire 32 n flushedJumpOffset [31:0] $end
$var wire 32 o flushedImmxD [31:0] $end
$var wire 4 p flushedAluSignalD [3:0] $end
$var wire 1 H flush $end
$var wire 1 q branchDCH $end
$var wire 1 r branchD $end
$var wire 4 s alusignalD [3:0] $end
$var wire 2 t aluopD [1:0] $end
$var reg 4 u alusignalE [3:0] $end
$var reg 1 J branchE $end
$var reg 32 v immxE [31:0] $end
$var reg 1 B isimmediateE $end
$var reg 1 A isloadE $end
$var reg 1 > jumpE $end
$var reg 32 w jumpoffset [31:0] $end
$var reg 1 < memreadE $end
$var reg 1 : memwriteE $end
$var reg 32 x op1E [31:0] $end
$var reg 32 y op2E [31:0] $end
$var reg 32 z pcE [31:0] $end
$var reg 32 { pcplus4E [31:0] $end
$var reg 5 | rdE [4:0] $end
$var reg 1 ) regwriteE $end
$var reg 5 } rs1E [4:0] $end
$var reg 5 ~ rs2E [4:0] $end
$scope module alu_control $end
$var wire 6 !" funct [5:0] $end
$var wire 6 "" opcode [5:0] $end
$var wire 2 #" ALUop [1:0] $end
$var reg 4 $" ALUsignal [3:0] $end
$upscope $end
$scope module control_unit $end
$var wire 6 %" opcode [5:0] $end
$var wire 32 &" IR [31:0] $end
$var reg 1 c ALUSrc $end
$var reg 2 '" AluOp [1:0] $end
$var reg 1 r Branch $end
$var reg 1 _ Jump $end
$var reg 1 ] MemRead $end
$var reg 1 a MemToReg $end
$var reg 1 [ MemWrite $end
$var reg 1 S RegDest $end
$var reg 1 R RegWrite $end
$upscope $end
$scope module flush_module $end
$var wire 4 (" alusignalD [3:0] $end
$var wire 1 r branchD $end
$var wire 1 )" clk $end
$var wire 1 c isimmediateD $end
$var wire 1 a isloadD $end
$var wire 1 _ jumpD $end
$var wire 32 *" jumpoffset [31:0] $end
$var wire 1 ] memreadD $end
$var wire 1 [ memwriteD $end
$var wire 5 +" rdD [4:0] $end
$var wire 1 R regwriteD $end
$var wire 5 ," rs1D [4:0] $end
$var wire 5 -" rs2D [4:0] $end
$var wire 1 ." rst $end
$var wire 32 /" pcplus4D [31:0] $end
$var wire 32 0" pcD [31:0] $end
$var wire 32 1" op2D [31:0] $end
$var wire 32 2" op1D [31:0] $end
$var wire 32 3" immxD [31:0] $end
$var wire 1 H flush $end
$var reg 4 4" alusignalDCH [3:0] $end
$var reg 1 q branchDCH $end
$var reg 32 5" immxDCH [31:0] $end
$var reg 1 b isimmediateDCH $end
$var reg 1 ` isloadDCH $end
$var reg 1 ^ jumpDCH $end
$var reg 32 6" jumpoffsetCH [31:0] $end
$var reg 1 \ memreadDCH $end
$var reg 1 Z memwriteDCH $end
$var reg 32 7" op1DCH [31:0] $end
$var reg 32 8" op2DCH [31:0] $end
$var reg 32 9" pcDCH [31:0] $end
$var reg 32 :" pcplus4DCH [31:0] $end
$var reg 5 ;" rdDCH [4:0] $end
$var reg 1 Q regwriteDCH $end
$var reg 5 <" rs1DCH [4:0] $end
$var reg 5 =" rs2DCH [4:0] $end
$upscope $end
$scope module jump_shift $end
$var wire 26 >" inData [25:0] $end
$var reg 28 ?" outData [27:0] $end
$upscope $end
$scope module register_file $end
$var wire 32 @" o1 [31:0] $end
$var wire 32 A" o2 [31:0] $end
$var wire 32 B" o3 [31:0] $end
$var wire 32 C" o4 [31:0] $end
$var wire 32 D" o5 [31:0] $end
$var wire 32 E" o6 [31:0] $end
$var wire 32 F" o7 [31:0] $end
$var wire 32 G" o8 [31:0] $end
$var wire 32 H" o9 [31:0] $end
$var wire 5 I" read_reg1 [4:0] $end
$var wire 5 J" read_reg2 [4:0] $end
$var wire 1 " rst $end
$var wire 5 K" write_reg [4:0] $end
$var wire 32 L" write_data [31:0] $end
$var wire 32 M" op2 [31:0] $end
$var wire 32 N" op1 [31:0] $end
$var wire 1 ' isWB $end
$var integer 32 O" i [31:0] $end
$upscope $end
$scope module sign_extender $end
$var wire 16 P" inData [15:0] $end
$var reg 32 Q" outData [31:0] $end
$upscope $end
$upscope $end
$scope module execute $end
$var wire 32 R" aluresultM [31:0] $end
$var wire 4 S" alusignalE [3:0] $end
$var wire 1 J branchE $end
$var wire 32 T" branchtargetE [31:0] $end
$var wire 1 ! clk $end
$var wire 32 U" immxE [31:0] $end
$var wire 1 C isbranchtakenE $end
$var wire 1 B isimmediateE $end
$var wire 1 A isloadE $end
$var wire 1 @ isloadM $end
$var wire 1 > jumpE $end
$var wire 32 V" jumpoffset [31:0] $end
$var wire 1 < memreadE $end
$var wire 1 ; memreadM $end
$var wire 1 : memwriteE $end
$var wire 1 9 memwriteM $end
$var wire 32 W" op1E [31:0] $end
$var wire 32 X" op2E [31:0] $end
$var wire 32 Y" pcE [31:0] $end
$var wire 32 Z" pcplus4E [31:0] $end
$var wire 32 [" pcplus4M [31:0] $end
$var wire 5 \" rdE [4:0] $end
$var wire 5 ]" rdM [4:0] $end
$var wire 1 ) regwriteE $end
$var wire 1 ( regwriteM $end
$var wire 5 ^" rs1E [4:0] $end
$var wire 5 _" rs2E [4:0] $end
$var wire 1 " rst $end
$var wire 32 `" writedataM [31:0] $end
$var wire 32 a" shifted_branch [31:0] $end
$var wire 32 b" resultW [31:0] $end
$var wire 32 c" readdataW [31:0] $end
$var wire 32 d" nextPCBranch [31:0] $end
$var wire 32 e" lo [31:0] $end
$var wire 32 f" hi [31:0] $end
$var wire 2 g" forwardbE [1:0] $end
$var wire 2 h" forwardaE [1:0] $end
$var wire 32 i" aluresultW [31:0] $end
$var wire 32 j" Src_B_interm [31:0] $end
$var wire 32 k" Src_B [31:0] $end
$var wire 32 l" Src_A [31:0] $end
$var wire 32 m" ResultE [31:0] $end
$var wire 32 n" Branch [31:0] $end
$var reg 1 o" MemReadE_r $end
$var reg 1 p" MemWriteE_r $end
$var reg 32 q" PCPlus4E_r [31:0] $end
$var reg 5 r" RD_E_r [4:0] $end
$var reg 1 ( RegWriteE_r $end
$var reg 32 s" ResultE_r [31:0] $end
$var reg 32 t" branchTargetE_r [31:0] $end
$var reg 1 u" isLoadE_r $end
$var reg 32 v" op2E_r [31:0] $end
$scope module PC_branch $end
$var wire 32 w" input1 [31:0] $end
$var wire 32 x" out [31:0] $end
$var wire 32 y" input2 [31:0] $end
$upscope $end
$scope module alu $end
$var wire 4 z" alusignal [3:0] $end
$var wire 64 {" p [63:0] $end
$var wire 32 |" b [31:0] $end
$var wire 32 }" a [31:0] $end
$var reg 32 ~" hi [31:0] $end
$var reg 32 !# lo [31:0] $end
$var reg 32 "# result [31:0] $end
$upscope $end
$scope module alu_src_mux $end
$var wire 32 ## input2 [31:0] $end
$var wire 1 B selection_line $end
$var wire 32 $# out [31:0] $end
$var wire 32 %# input1 [31:0] $end
$upscope $end
$scope module branchPC $end
$var wire 32 &# input1 [31:0] $end
$var wire 32 '# input2 [31:0] $end
$var wire 1 > selection_line $end
$var wire 32 (# out [31:0] $end
$upscope $end
$scope module branch_shift $end
$var wire 32 )# inData [31:0] $end
$var reg 32 *# outData [31:0] $end
$upscope $end
$scope module muxa $end
$var wire 32 +# input1 [31:0] $end
$var wire 32 ,# input3 [31:0] $end
$var wire 2 -# selection_line [1:0] $end
$var wire 32 .# out [31:0] $end
$var wire 32 /# input4 [31:0] $end
$var wire 32 0# input2 [31:0] $end
$upscope $end
$scope module muxb $end
$var wire 32 1# input1 [31:0] $end
$var wire 32 2# input3 [31:0] $end
$var wire 2 3# selection_line [1:0] $end
$var wire 32 4# out [31:0] $end
$var wire 32 5# input4 [31:0] $end
$var wire 32 6# input2 [31:0] $end
$upscope $end
$upscope $end
$scope module fetch $end
$var wire 32 7# branchtargetE [31:0] $end
$var wire 1 ! clk $end
$var wire 32 8# instrD [31:0] $end
$var wire 1 C isbranchtakenE $end
$var wire 32 9# pcD [31:0] $end
$var wire 32 :# pcplus4D [31:0] $end
$var wire 1 " rst $end
$var wire 32 ;# pcf [31:0] $end
$var wire 32 <# pc_plus4f [31:0] $end
$var wire 32 =# pc_next [31:0] $end
$var wire 32 ># instrf [31:0] $end
$var wire 1 H flush $end
$var reg 32 ?# InstrF_r [31:0] $end
$var reg 32 @# PCF_r [31:0] $end
$var reg 32 A# PC_Plus4F_r [31:0] $end
$var reg 32 B# instrfCH [31:0] $end
$var reg 32 C# pcfCH [31:0] $end
$var reg 32 D# pcplus4fCH [31:0] $end
$scope module IM $end
$var wire 32 E# pc [31:0] $end
$var reg 32 F# data [31:0] $end
$var reg 32 G# ir [31:0] $end
$var integer 32 H# file [31:0] $end
$var integer 32 I# i [31:0] $end
$upscope $end
$scope module PC_adder $end
$var wire 32 J# input2 [31:0] $end
$var wire 32 K# out [31:0] $end
$var wire 32 L# input1 [31:0] $end
$upscope $end
$scope module PC_mux $end
$var wire 32 M# input1 [31:0] $end
$var wire 32 N# input2 [31:0] $end
$var wire 1 C selection_line $end
$var wire 32 O# out [31:0] $end
$upscope $end
$scope module PCmodule $end
$var wire 1 ! clk $end
$var wire 32 P# input1 [31:0] $end
$var wire 1 " rst $end
$var reg 32 Q# out [31:0] $end
$upscope $end
$upscope $end
$scope module hazard $end
$var wire 32 R# branchtargetE [31:0] $end
$var wire 1 C isbranchtakenE $end
$var wire 32 S# pcf [31:0] $end
$var wire 5 T# rdM [4:0] $end
$var wire 1 ( regwriteM $end
$var wire 5 U# rs1E [4:0] $end
$var wire 5 V# rs2E [4:0] $end
$var wire 1 " rst $end
$var wire 1 * regwrite $end
$var wire 5 W# rd [4:0] $end
$var wire 1 ? isloadW $end
$var wire 2 X# forwardbE [1:0] $end
$var wire 2 Y# forwardaE [1:0] $end
$var wire 1 H flush $end
$upscope $end
$scope module memory $end
$var wire 32 Z# aluresultM [31:0] $end
$var wire 32 [# aluresultW [31:0] $end
$var wire 1 ! clock $end
$var wire 1 @ isloadM $end
$var wire 1 ? isloadW $end
$var wire 1 ; memreadM $end
$var wire 1 9 memwriteM $end
$var wire 32 \# pcplus4M [31:0] $end
$var wire 32 ]# pcplus4W [31:0] $end
$var wire 5 ^# rdM [4:0] $end
$var wire 32 _# readdataW [31:0] $end
$var wire 1 ( regwriteM $end
$var wire 1 " rst $end
$var wire 32 `# writedataM [31:0] $end
$var wire 1 * regwrite $end
$var wire 32 a# readDataM [31:0] $end
$var wire 5 b# rd [4:0] $end
$var reg 32 c# aluresultM_r [31:0] $end
$var reg 1 ? isloadM_r $end
$var reg 32 d# pcplus4M_r [31:0] $end
$var reg 5 e# rdM_r [4:0] $end
$var reg 32 f# readdataM_r [31:0] $end
$var reg 1 * regwriteM_r $end
$scope module dmem $end
$var wire 32 g# address [31:0] $end
$var wire 1 ; memread $end
$var wire 1 9 memwrite $end
$var wire 32 h# o1 [31:0] $end
$var wire 32 i# writedata [31:0] $end
$var wire 7 j# addr_index [6:0] $end
$var reg 32 k# readdata [31:0] $end
$var integer 32 l# i [31:0] $end
$upscope $end
$upscope $end
$scope module writeback $end
$var wire 32 m# aluresultW [31:0] $end
$var wire 1 ! clk $end
$var wire 1 ? isloadW $end
$var wire 32 n# pcplus4W [31:0] $end
$var wire 5 o# rd [4:0] $end
$var wire 5 p# rdW [4:0] $end
$var wire 32 q# readdataW [31:0] $end
$var wire 1 * regwrite $end
$var wire 1 ' regwriteW $end
$var wire 1 " rst $end
$var wire 32 r# resultW [31:0] $end
$scope module writeback_mux $end
$var wire 32 s# input1 [31:0] $end
$var wire 32 t# input2 [31:0] $end
$var wire 1 ? selection_line $end
$var wire 32 u# out [31:0] $end
$upscope $end
$upscope $end
$upscope $end
$upscope $end
$enddefinitions $end
#0
$dumpvars
bx u#
bx t#
bx s#
bx r#
bx q#
bx p#
bx o#
bx n#
bx m#
b10000000 l#
bx k#
bx j#
bx i#
b10001001100 h#
bx g#
bx f#
bx e#
bx d#
bx c#
bx b#
bx a#
bx `#
bx _#
bx ^#
bx ]#
bx \#
bx [#
bx Z#
b0 Y#
b0 X#
bx W#
b0 V#
b0 U#
bx T#
bx S#
b0 R#
bx Q#
bx P#
bx O#
b0 N#
bx M#
bx L#
bx K#
b100 J#
b1011 I#
b10000000000000000000000000000011 H#
bx G#
b1000000000000000000000000101 F#
bx E#
bx D#
bx C#
bx B#
b0 A#
b0 @#
b0 ?#
bx >#
bx =#
bx <#
bx ;#
b0 :#
b0 9#
b0 8#
b0 7#
bx 6#
bx 5#
b0 4#
b0 3#
bx 2#
b0 1#
bx 0#
bx /#
b0 .#
b0 -#
bx ,#
b0 +#
b0 *#
b0 )#
b0 (#
b0 '#
b0 &#
b0 %#
b0 $#
b0 ##
b0 "#
b0 !#
b0 ~"
b0 }"
b0 |"
b0 {"
b0 z"
b0 y"
b0 x"
b0 w"
bx v"
xu"
bx t"
bx s"
bx r"
bx q"
xp"
xo"
b0 n"
b0 m"
b0 l"
b0 k"
b0 j"
bx i"
b0 h"
b0 g"
b0 f"
b0 e"
b0 d"
bx c"
bx b"
b0 a"
bx `"
b0 _"
b0 ^"
bx ]"
b0 \"
bx ["
b0 Z"
b0 Y"
b0 X"
b0 W"
b0 V"
b0 U"
b0 T"
b0 S"
bx R"
b0 Q"
b0 P"
b100000 O"
b0 N"
b0 M"
bx L"
bx K"
b0 J"
b0 I"
b0 H"
b0 G"
b0 F"
b0 E"
b100 D"
b1000 C"
b111 B"
b101 A"
b100 @"
b0 ?"
b0 >"
b0 ="
b0 <"
b0 ;"
b0 :"
b0 9"
b0 8"
b0 7"
b0 6"
b0 5"
b10 4"
b0 3"
b0 2"
b0 1"
b0 0"
b0 /"
z."
b0 -"
b0 ,"
b0 +"
b0 *"
z)"
b10 ("
b0 '"
b0 &"
b0 %"
b10 $"
b0 #"
b0 ""
b0 !"
b0 ~
b0 }
b0 |
b0 {
b0 z
b0 y
b0 x
b0 w
b0 v
b0 u
b0 t
b10 s
0r
0q
b10 p
b0 o
b0 n
b0 m
b0 l
b0 k
b0 j
b0 i
b0 h
b0 g
b0 f
b0 e
b0 d
0c
0b
0a
0`
0_
0^
0]
0\
0[
0Z
b0 Y
b0 X
b0 W
b0 V
b0 U
bx T
0S
0R
0Q
bx P
b0 O
b0 N
bx M
bx L
b0 K
0J
b0 I
0H
b0 G
b0 F
b0 E
b0 D
0C
0B
0A
x@
x?
0>
b0 =
0<
x;
0:
x9
b0 8
b0 7
b0 6
b0 5
bx 4
b0 3
b0 2
bx 1
bx 0
bx /
b0 .
bx -
bx ,
bx +
x*
0)
x(
x'
bx &
b0 %
b0 $
bx #
1"
0!
$end
#5000
b100000000000010000000000000000 B#
b100000000000010000000000000000 >#
b100000000000010000000000000000 G#
b100 =#
b100 O#
b100 P#
b100 D#
b0 C#
b0 j#
b0 &
b0 P
b0 L"
b0 b"
b0 r#
b0 u#
b100 <#
b100 K#
b100 M#
b0 4
b0 ;#
b0 E#
b0 L#
b0 Q#
b0 S#
b0 #
b0 `"
b0 `#
b0 i#
b0 v"
b0 t"
b0 M
b0 R"
b0 s"
b0 ,#
b0 2#
b0 Z#
b0 g#
b0 1
b0 ["
b0 \#
b0 q"
b0 -
b0 ]"
b0 r"
b0 T#
b0 ^#
0;
0o"
0@
0u"
09
0p"
0(
0?
0'
0*
b0 ,
b0 T
b0 K"
b0 p#
b0 /
b0 W#
b0 b#
b0 e#
b0 o#
b0 +
b0 c"
b0 /#
b0 5#
b0 _#
b0 f#
b0 q#
b0 t#
b0 L
b0 i"
b0 0#
b0 6#
b0 [#
b0 c#
b0 m#
b0 s#
b0 0
b0 ]#
b0 n#
b0 d#
1!
#7000
0"
#10000
0!
#15000
1b
1Q
b100000000000100000000000000001 B#
1c
1R
0S
b0 t
b0 #"
b0 '"
b100000000000100000000000000001 >#
b100000000000100000000000000001 G#
b1 g
b1 ="
b1 i
b1 ;"
b1000000000000000000 n
b1000000000000000000 6"
b100 l
b100 8"
b1 U
b1 +"
b1000000000000000000 f
b1000000000000000000 *"
b1000000000000000000 ?"
b100 X
b100 1"
b100 M"
b1 N
b1 -"
b1000 ""
b10000000000000000 >"
b1 J"
b1000 %"
b100 j
b100 :"
b1000 =#
b1000 O#
b1000 P#
b1000 D#
b100 C#
b100000000000010000000000000000 D
b100000000000010000000000000000 d
b100000000000010000000000000000 &"
b100000000000010000000000000000 8#
b100000000000010000000000000000 ?#
b100 3
b100 V
b100 /"
b100 :#
b100 A#
b10 K
b10 u
b10 S"
b10 z"
bx +
bx c"
bx /#
bx 5#
bx _#
bx f#
bx q#
bx t#
b1000 <#
b1000 K#
b1000 M#
b100 4
b100 ;#
b100 E#
b100 L#
b100 Q#
b100 S#
1!
#20000
0!
#25000
b100000000000110000000000000000 B#
b100000000000110000000000000000 >#
b100000000000110000000000000000 G#
b10 g
b10 ="
b10 i
b10 ;"
b10000000000000000100 n
b10000000000000000100 6"
b1 o
b1 5"
b101 l
b101 8"
b10 U
b10 +"
b10000000000000000100 f
b10000000000000000100 *"
b10000000000000000100 ?"
b1 e
b1 3"
b1 Q"
b101 X
b101 1"
b101 M"
b100 I
b100 T"
b100 7#
b100 N#
b100 R#
b100 n"
b100 (#
b100 j"
b100 %#
b100 4#
b10 N
b10 -"
b1 !"
b100000000000000001 >"
b1 P"
b10 J"
b1000 j
b1000 :"
b100 k
b100 9"
b1100 =#
b1100 O#
b1100 P#
b1100 D#
b1000 C#
b1000000000000000000 =
b1000000000000000000 w
b1000000000000000000 V"
b1000000000000000000 '#
b1 $
b1 ~
b1 _"
b1 V#
b100 d"
b100 x"
b100 &#
b100 2
b100 {
b100 Z"
b100 w"
b1 .
b1 |
b1 \"
b100 7
b100 y
b100 X"
b100 1#
1B
1)
b100 6
b100 W
b100 0"
b100 9#
b100 @#
b100000000000100000000000000001 D
b100000000000100000000000000001 d
b100000000000100000000000000001 &"
b100000000000100000000000000001 8#
b100000000000100000000000000001 ?#
b1000 3
b1000 V
b1000 /"
b1000 :#
b1000 A#
b1100 <#
b1100 K#
b1100 M#
b1000 4
b1000 ;#
b1000 E#
b1000 L#
b1000 Q#
b1000 S#
1!
#30000
0!
#35000
b100000000001000000000000000001 B#
b100000000001000000000000000001 >#
b100000000001000000000000000001 G#
b11 g
b11 ="
b11 i
b11 ;"
b11000000000000000000 n
b11000000000000000000 6"
b0 o
b0 5"
b111 l
b111 8"
b11 U
b11 +"
b11000000000000000000 f
b11000000000000000000 *"
b11000000000000000000 ?"
b0 e
b0 3"
b0 Q"
b111 X
b111 1"
b111 M"
b1 m"
b1 "#
b11 N
b11 -"
b0 !"
b110000000000000000 >"
b0 P"
b11 J"
b1100 j
b1100 :"
b1000 k
b1000 9"
b1100 I
b1100 T"
b1100 7#
b1100 N#
b1100 R#
b1100 n"
b1100 (#
b1 k"
b1 |"
b1 $#
b100 a"
b100 y"
b100 *#
b101 j"
b101 %#
b101 4#
b10000 =#
b10000 O#
b10000 P#
b10000 D#
b1100 C#
b1000 6
b1000 W
b1000 0"
b1000 9#
b1000 @#
b100000000000110000000000000000 D
b100000000000110000000000000000 d
b100000000000110000000000000000 &"
b100000000000110000000000000000 8#
b100000000000110000000000000000 ?#
b1100 3
b1100 V
b1100 /"
b1100 :#
b1100 A#
b10000000000000000100 =
b10000000000000000100 w
b10000000000000000100 V"
b10000000000000000100 '#
b10 $
b10 ~
b10 _"
b10 V#
b1100 d"
b1100 x"
b1100 &#
b1000 2
b1000 {
b1000 Z"
b1000 w"
b100 5
b100 z
b100 Y"
b10 .
b10 |
b10 \"
b1 E
b1 v
b1 U"
b1 ##
b1 )#
b101 7
b101 y
b101 X"
b101 1#
b100 #
b100 `"
b100 `#
b100 i#
b100 v"
b100 t"
b100 1
b100 ["
b100 \#
b100 q"
b1 -
b1 ]"
b1 r"
b1 T#
b1 ^#
1(
b10000 <#
b10000 K#
b10000 M#
b1100 4
b1100 ;#
b1100 E#
b1100 L#
b1100 Q#
b1100 S#
1!
#40000
0!
#45000
b100000000001010000000000001010 B#
b100000000001010000000000001010 >#
b100000000001010000000000001010 G#
b0 @"
b0 m"
b0 "#
b100 g
b100 ="
b100 i
b100 ;"
b100000000000000000100 n
b100000000000000000100 6"
b1 o
b1 5"
b1000 l
b1000 8"
b100 U
b100 +"
b100000000000000000100 f
b100000000000000000100 *"
b100000000000000000100 ?"
b1 e
b1 3"
b1 Q"
b1000 X
b1000 1"
b1000 M"
b0 k"
b0 |"
b0 $#
b0 a"
b0 y"
b0 *#
b111 j"
b111 %#
b111 4#
b100 N
b100 -"
b1 !"
b1000000000000000001 >"
b1 P"
b100 J"
b10000 j
b10000 :"
b1100 k
b1100 9"
b10100 =#
b10100 O#
b10100 P#
b10100 D#
b10000 C#
b1 j#
b11000000000000000000 =
b11000000000000000000 w
b11000000000000000000 V"
b11000000000000000000 '#
b11 $
b11 ~
b11 _"
b11 V#
b1100 d"
b1100 x"
b1100 &#
b1100 2
b1100 {
b1100 Z"
b1100 w"
b1000 5
b1000 z
b1000 Y"
b11 .
b11 |
b11 \"
b0 E
b0 v
b0 U"
b0 ##
b0 )#
b111 7
b111 y
b111 X"
b111 1#
b1100 6
b1100 W
b1100 0"
b1100 9#
b1100 @#
b100000000001000000000000000001 D
b100000000001000000000000000001 d
b100000000001000000000000000001 &"
b100000000001000000000000000001 8#
b100000000001000000000000000001 ?#
b10000 3
b10000 V
b10000 /"
b10000 :#
b10000 A#
b10100 <#
b10100 K#
b10100 M#
b10000 4
b10000 ;#
b10000 E#
b10000 L#
b10000 Q#
b10000 S#
b101 #
b101 `"
b101 `#
b101 i#
b101 v"
b1100 t"
b1 M
b1 R"
b1 s"
b1 ,#
b1 2#
b1 Z#
b1 g#
b1000 1
b1000 ["
b1000 \#
b1000 q"
b10 -
b10 ]"
b10 r"
b10 T#
b10 ^#
b100 0
b100 ]#
b100 n#
b100 d#
b1 ,
b1 T
b1 K"
b1 p#
b1 /
b1 W#
b1 b#
b1 e#
b1 o#
1'
1*
1!
#50000
0!
#55000
b10000101001000000000000000110 B#
b1 A"
b10000101001000000000000000110 >#
b10000101001000000000000000110 G#
b101 g
b101 ="
b101 i
b101 ;"
b101000000000000101000 n
b101000000000000101000 6"
b1010 o
b1010 5"
b100 l
b100 8"
b101 U
b101 +"
b101000000000000101000 f
b101000000000000101000 *"
b101000000000000101000 ?"
b1010 e
b1010 3"
b1010 Q"
b100 X
b100 1"
b100 M"
b1 m"
b1 "#
b101 N
b101 -"
b1010 !"
b1010000000000001010 >"
b1010 P"
b101 J"
b10100 j
b10100 :"
b10000 k
b10000 9"
b10100 I
b10100 T"
b10100 7#
b10100 N#
b10100 R#
b10100 n"
b10100 (#
b1 k"
b1 |"
b1 $#
b100 a"
b100 y"
b100 *#
b1000 j"
b1000 %#
b1000 4#
b1 &
b1 P
b1 L"
b1 b"
b1 r#
b1 u#
b0 j#
b11000 =#
b11000 O#
b11000 P#
b11000 D#
b10100 C#
b10000 6
b10000 W
b10000 0"
b10000 9#
b10000 @#
b100000000001010000000000001010 D
b100000000001010000000000001010 d
b100000000001010000000000001010 &"
b100000000001010000000000001010 8#
b100000000001010000000000001010 ?#
b10100 3
b10100 V
b10100 /"
b10100 :#
b10100 A#
b100000000000000000100 =
b100000000000000000100 w
b100000000000000000100 V"
b100000000000000000100 '#
b100 $
b100 ~
b100 _"
b100 V#
b10100 d"
b10100 x"
b10100 &#
b10000 2
b10000 {
b10000 Z"
b10000 w"
b1100 5
b1100 z
b1100 Y"
b100 .
b100 |
b100 \"
b1 E
b1 v
b1 U"
b1 ##
b1 )#
b1000 7
b1000 y
b1000 X"
b1000 1#
b1 L
b1 i"
b1 0#
b1 6#
b1 [#
b1 c#
b1 m#
b1 s#
b1000 0
b1000 ]#
b1000 n#
b1000 d#
b10 ,
b10 T
b10 K"
b10 p#
b10 /
b10 W#
b10 b#
b10 e#
b10 o#
b111 #
b111 `"
b111 `#
b111 i#
b111 v"
b0 M
b0 R"
b0 s"
b0 ,#
b0 2#
b0 Z#
b0 g#
b1100 1
b1100 ["
b1100 \#
b1100 q"
b11 -
b11 ]"
b11 r"
b11 T#
b11 ^#
b11000 <#
b11000 K#
b11000 M#
b10100 4
b10100 ;#
b10100 E#
b10100 L#
b10100 Q#
b10100 S#
1!
#60000
0!
