SourceFiles/Output.vcd
$date
	Sun Nov 10 01:37:12 2024
$end
$version
	Icarus Verilog
$end
$timescale
	1ps
$end
$scope module TopPipeline_tb $end
$var reg 1 ! clk $end
$var reg 1 " rst $end
$scope module top_inst $end
$var wire 1 ! clk $end
$var wire 1 " rst $end
$var wire 32 # writedataM [31:0] $end
$var wire 5 $ rs2E [4:0] $end
$var wire 5 % rs1E [4:0] $end
$var wire 32 & resultW [31:0] $end
$var wire 1 ' regwriteW $end
$var wire 1 ( regwriteM $end
$var wire 1 ) regwriteE $end
$var wire 1 * regwrite $end
$var wire 32 + readdataW [31:0] $end
$var wire 5 , rdW [4:0] $end
$var wire 5 - rdM [4:0] $end
$var wire 5 . rdE [4:0] $end
$var wire 5 / rd [4:0] $end
$var wire 32 0 pcplus4W [31:0] $end
$var wire 32 1 pcplus4M [31:0] $end
$var wire 32 2 pcplus4E [31:0] $end
$var wire 32 3 pcplus4D [31:0] $end
$var wire 32 4 pcE [31:0] $end
$var wire 32 5 pcD [31:0] $end
$var wire 32 6 op2E [31:0] $end
$var wire 32 7 op1E [31:0] $end
$var wire 1 8 memwriteM $end
$var wire 1 9 memwriteE $end
$var wire 1 : memreadM $end
$var wire 1 ; memreadE $end
$var wire 32 < jumpoffset [31:0] $end
$var wire 1 = jumpE $end
$var wire 1 > isloadW $end
$var wire 1 ? isloadM $end
$var wire 1 @ isloadE $end
$var wire 1 A isimmediateE $end
$var wire 1 B isbranchtakenE $end
$var wire 32 C instrD [31:0] $end
$var wire 32 D immxE [31:0] $end
$var wire 2 E forwardbE [1:0] $end
$var wire 2 F forwardaE [1:0] $end
$var wire 32 G branchtargetE [31:0] $end
$var wire 1 H branchE $end
$var wire 4 I alusignalE [3:0] $end
$var wire 32 J aluresultW [31:0] $end
$var wire 32 K aluresultM [31:0] $end
$scope module decode $end
$var wire 4 L alusignalE [3:0] $end
$var wire 1 H branchE $end
$var wire 1 ! clk $end
$var wire 1 A isimmediateE $end
$var wire 1 @ isloadE $end
$var wire 1 = jumpE $end
$var wire 1 ; memreadE $end
$var wire 1 9 memwriteE $end
$var wire 32 M pcE [31:0] $end
$var wire 5 N rdE [4:0] $end
$var wire 1 ) regwriteE $end
$var wire 1 " rst $end
$var wire 28 O shiftedJumpOffset [27:0] $end
$var wire 5 P rs2E [4:0] $end
$var wire 5 Q rs1E [4:0] $end
$var wire 32 R resultW [31:0] $end
$var wire 1 ' regwriteW $end
$var wire 1 S regwriteD $end
$var wire 1 T regdestD $end
$var wire 5 U rdW [4:0] $end
$var wire 32 V pcplus4E [31:0] $end
$var wire 32 W pcplus4D [31:0] $end
$var wire 32 X pcD [31:0] $end
$var wire 32 Y op2E [31:0] $end
$var wire 32 Z op2D [31:0] $end
$var wire 32 [ op1E [31:0] $end
$var wire 32 \ op1D [31:0] $end
$var wire 1 ] memwriteD $end
$var wire 1 ^ memreadD $end
$var wire 32 _ jumpoffset [31:0] $end
$var wire 1 ` jumpD $end
$var wire 1 a isloadD $end
$var wire 1 b isimmediateD $end
$var wire 32 c instrD [31:0] $end
$var wire 32 d immxE [31:0] $end
$var wire 32 e immxD [31:0] $end
$var wire 32 f fullJumpOffset [31:0] $end
$var wire 1 g branchD $end
$var wire 4 h alusignalD [3:0] $end
$var wire 2 i aluopD [1:0] $end
$var reg 4 j alusignal_r [3:0] $end
$var reg 1 H branchD_r $end
$var reg 32 k immx_r [31:0] $end
$var reg 1 A isimmediateD_r $end
$var reg 1 l isloadD_r $end
$var reg 1 = jumpD_r $end
$var reg 32 m jumpoffset_r [31:0] $end
$var reg 1 n memreadD_r $end
$var reg 1 o memwriteD_r $end
$var reg 32 p op1_r [31:0] $end
$var reg 32 q op2_r [31:0] $end
$var reg 32 r pc_r [31:0] $end
$var reg 32 s pcplus4_r [31:0] $end
$var reg 5 t rd_r [4:0] $end
$var reg 1 u regwriteD_r $end
$var reg 5 v rs1_r [4:0] $end
$var reg 5 w rs2_r [4:0] $end
$scope module Alu_control $end
$var wire 6 x funct [5:0] $end
$var wire 6 y opcode [5:0] $end
$var wire 2 z ALUop [1:0] $end
$var parameter 6 { add $end
$var parameter 6 | addi $end
$var parameter 6 } addiu $end
$var parameter 6 ~ addu $end
$var parameter 6 !" and1 $end
$var parameter 6 "" andi $end
$var parameter 6 #" beq $end
$var parameter 6 $" bgez $end
$var parameter 6 %" bgtz $end
$var parameter 6 &" blez $end
$var parameter 6 '" bltz $end
$var parameter 6 (" bne $end
$var parameter 6 )" div $end
$var parameter 6 *" divu $end
$var parameter 6 +" lw $end
$var parameter 6 ," mul $end
$var parameter 6 -" mulu $end
$var parameter 6 ." nor1 $end
$var parameter 6 /" or1 $end
$var parameter 6 0" ori $end
$var parameter 6 1" slt $end
$var parameter 6 2" slti $end
$var parameter 6 3" sltiu $end
$var parameter 6 4" sltu $end
$var parameter 6 5" sub $end
$var parameter 6 6" subu $end
$var parameter 6 7" sw $end
$var parameter 6 8" xor1 $end
$var parameter 6 9" xori $end
$var reg 4 :" ALUsignal [3:0] $end
$upscope $end
$scope module control_unit $end
$var wire 6 ;" opcode [5:0] $end
$var wire 32 <" IR [31:0] $end
$var parameter 6 =" Rtype $end
$var parameter 6 >" addi $end
$var parameter 6 ?" addiu $end
$var parameter 6 @" andi $end
$var parameter 6 A" beq $end
$var parameter 6 B" bgez $end
$var parameter 6 C" bgtz $end
$var parameter 6 D" blez $end
$var parameter 6 E" bltz $end
$var parameter 6 F" bne $end
$var parameter 6 G" j $end
$var parameter 6 H" lw $end
$var parameter 6 I" ori $end
$var parameter 6 J" slti $end
$var parameter 6 K" sltiu $end
$var parameter 6 L" sw $end
$var parameter 6 M" xori $end
$var reg 1 b ALUSrc $end
$var reg 2 N" AluOp [1:0] $end
$var reg 1 g Branch $end
$var reg 1 ` Jump $end
$var reg 1 ^ MemRead $end
$var reg 1 a MemToReg $end
$var reg 1 ] MemWrite $end
$var reg 1 T RegDest $end
$var reg 1 S RegWrite $end
$upscope $end
$scope module jump_concat $end
$var wire 4 O" pcUpperBits [3:0] $end
$var wire 28 P" shiftedAddress [27:0] $end
$var reg 32 Q" result [31:0] $end
$upscope $end
$scope module jump_shift $end
$var wire 26 R" inData [25:0] $end
$var reg 28 S" outData [27:0] $end
$upscope $end
$scope module register_file $end
$var wire 32 T" o1 [31:0] $end
$var wire 32 U" o5 [31:0] $end
$var wire 32 V" o6 [31:0] $end
$var wire 5 W" read_reg1 [4:0] $end
$var wire 5 X" read_reg2 [4:0] $end
$var wire 1 " rst $end
$var wire 5 Y" write_reg [4:0] $end
$var wire 32 Z" write_data [31:0] $end
$var wire 32 [" op2 [31:0] $end
$var wire 32 \" op1 [31:0] $end
$var wire 1 ' isWB $end
$var integer 32 ]" i [31:0] $end
$upscope $end
$scope module sign_extender $end
$var wire 16 ^" inData [15:0] $end
$var reg 32 _" outData [31:0] $end
$upscope $end
$upscope $end
$scope module execute $end
$var wire 32 `" aluresultM [31:0] $end
$var wire 4 a" alusignalE [3:0] $end
$var wire 1 H branchE $end
$var wire 32 b" branchtargetE [31:0] $end
$var wire 1 ! clk $end
$var wire 32 c" immxE [31:0] $end
$var wire 1 B isbranchtakenE $end
$var wire 1 A isimmediateE $end
$var wire 1 @ isloadE $end
$var wire 1 ? isloadM $end
$var wire 1 = jumpE $end
$var wire 32 d" jumpoffset [31:0] $end
$var wire 1 ; memreadE $end
$var wire 1 : memreadM $end
$var wire 1 9 memwriteE $end
$var wire 1 8 memwriteM $end
$var wire 32 e" op1E [31:0] $end
$var wire 32 f" op2E [31:0] $end
$var wire 32 g" pcE [31:0] $end
$var wire 32 h" pcplus4E [31:0] $end
$var wire 32 i" pcplus4M [31:0] $end
$var wire 5 j" rdE [4:0] $end
$var wire 5 k" rdM [4:0] $end
$var wire 1 ) regwriteE $end
$var wire 1 ( regwriteM $end
$var wire 5 l" rs1E [4:0] $end
$var wire 5 m" rs2E [4:0] $end
$var wire 1 " rst $end
$var wire 32 n" writedataM [31:0] $end
$var wire 32 o" shifted_branch [31:0] $end
$var wire 32 p" resultW [31:0] $end
$var wire 32 q" readdataW [31:0] $end
$var wire 32 r" nextPCBranch [31:0] $end
$var wire 32 s" lo [31:0] $end
$var wire 32 t" hi [31:0] $end
$var wire 2 u" forwardbE [1:0] $end
$var wire 2 v" forwardaE [1:0] $end
$var wire 32 w" aluresultW [31:0] $end
$var wire 32 x" Src_B_interm [31:0] $end
$var wire 32 y" Src_B [31:0] $end
$var wire 32 z" Src_A [31:0] $end
$var wire 32 {" ResultE [31:0] $end
$var wire 32 |" Branch [31:0] $end
$var reg 1 }" MemReadE_r $end
$var reg 1 ~" MemWriteE_r $end
$var reg 32 !# PCPlus4E_r [31:0] $end
$var reg 5 "# RD_E_r [4:0] $end
$var reg 1 ( RegWriteE_r $end
$var reg 32 ## ResultE_r [31:0] $end
$var reg 32 $# branchTargetE_r [31:0] $end
$var reg 1 %# isLoadE_r $end
$var reg 32 &# op2E_r [31:0] $end
$scope module PC_branch $end
$var wire 32 '# input1 [31:0] $end
$var wire 32 (# out [31:0] $end
$var wire 32 )# input2 [31:0] $end
$upscope $end
$scope module alu $end
$var wire 4 *# alusignal [3:0] $end
$var wire 64 +# p [63:0] $end
$var wire 32 ,# b [31:0] $end
$var wire 32 -# a [31:0] $end
$var reg 32 .# hi [31:0] $end
$var reg 32 /# lo [31:0] $end
$var reg 32 0# result [31:0] $end
$upscope $end
$scope module alu_src_mux $end
$var wire 32 1# input2 [31:0] $end
$var wire 1 A selection_line $end
$var wire 32 2# out [31:0] $end
$var wire 32 3# input1 [31:0] $end
$upscope $end
$scope module branchPC $end
$var wire 32 4# input1 [31:0] $end
$var wire 32 5# input2 [31:0] $end
$var wire 1 = selection_line $end
$var wire 32 6# out [31:0] $end
$upscope $end
$scope module branch_shift $end
$var wire 32 7# inData [31:0] $end
$var reg 32 8# outData [31:0] $end
$upscope $end
$scope module muxa $end
$var wire 32 9# input1 [31:0] $end
$var wire 32 :# input3 [31:0] $end
$var wire 2 ;# selection_line [1:0] $end
$var wire 32 <# out [31:0] $end
$var wire 32 =# input4 [31:0] $end
$var wire 32 ># input2 [31:0] $end
$upscope $end
$scope module muxb $end
$var wire 32 ?# input1 [31:0] $end
$var wire 32 @# input3 [31:0] $end
$var wire 2 A# selection_line [1:0] $end
$var wire 32 B# out [31:0] $end
$var wire 32 C# input4 [31:0] $end
$var wire 32 D# input2 [31:0] $end
$upscope $end
$upscope $end
$scope module fetch $end
$var wire 32 E# branchtargetE [31:0] $end
$var wire 1 ! clk $end
$var wire 32 F# instrD [31:0] $end
$var wire 1 B isbranchtakenE $end
$var wire 32 G# pcD [31:0] $end
$var wire 32 H# pcplus4D [31:0] $end
$var wire 1 " rst $end
$var wire 32 I# pcf [31:0] $end
$var wire 32 J# pc_plus4f [31:0] $end
$var wire 32 K# pc_next [31:0] $end
$var wire 32 L# instrf [31:0] $end
$var reg 32 M# InstrF_r [31:0] $end
$var reg 32 N# PCF_r [31:0] $end
$var reg 32 O# PC_Plus4F_r [31:0] $end
$scope module IM $end
$var wire 1 P# memread $end
$var wire 32 Q# pc [31:0] $end
$var reg 32 R# ir [31:0] $end
$var integer 32 S# i [31:0] $end
$upscope $end
$scope module PC_adder $end
$var wire 32 T# input2 [31:0] $end
$var wire 32 U# out [31:0] $end
$var wire 32 V# input1 [31:0] $end
$upscope $end
$scope module PC_mux $end
$var wire 32 W# input1 [31:0] $end
$var wire 32 X# input2 [31:0] $end
$var wire 1 B selection_line $end
$var wire 32 Y# out [31:0] $end
$upscope $end
$scope module PCmodule $end
$var wire 1 ! clk $end
$var wire 32 Z# input1 [31:0] $end
$var wire 1 " rst $end
$var reg 32 [# out [31:0] $end
$upscope $end
$upscope $end
$scope module hazard $end
$var wire 5 \# rdM [4:0] $end
$var wire 1 ( regwriteM $end
$var wire 5 ]# rs1E [4:0] $end
$var wire 5 ^# rs2E [4:0] $end
$var wire 1 " rst $end
$var wire 1 * regwrite $end
$var wire 5 _# rd [4:0] $end
$var wire 1 > isloadW $end
$var wire 2 `# forwardbE [1:0] $end
$var wire 2 a# forwardaE [1:0] $end
$upscope $end
$scope module memory $end
$var wire 32 b# aluresultM [31:0] $end
$var wire 32 c# aluresultW [31:0] $end
$var wire 1 ! clock $end
$var wire 1 ? isloadM $end
$var wire 1 > isloadW $end
$var wire 1 : memreadM $end
$var wire 1 8 memwriteM $end
$var wire 32 d# pcplus4M [31:0] $end
$var wire 32 e# pcplus4W [31:0] $end
$var wire 5 f# rdM [4:0] $end
$var wire 32 g# readdataW [31:0] $end
$var wire 1 ( regwriteM $end
$var wire 1 " rst $end
$var wire 32 h# writedataM [31:0] $end
$var wire 1 * regwrite $end
$var wire 32 i# readDataM [31:0] $end
$var wire 5 j# rd [4:0] $end
$var reg 32 k# aluresultM_r [31:0] $end
$var reg 1 > isloadM_r $end
$var reg 32 l# pcplus4M_r [31:0] $end
$var reg 5 m# rdM_r [4:0] $end
$var reg 32 n# readdataM_r [31:0] $end
$var reg 1 * regwriteM_r $end
$scope module dmem $end
$var wire 32 o# address [31:0] $end
$var wire 1 : memread $end
$var wire 1 8 memwrite $end
$var wire 32 p# o1 [31:0] $end
$var wire 32 q# writedata [31:0] $end
$var wire 7 r# addr_index [6:0] $end
$var reg 32 s# readdata [31:0] $end
$var integer 32 t# i [31:0] $end
$upscope $end
$upscope $end
$scope module writeback $end
$var wire 32 u# aluresultW [31:0] $end
$var wire 1 ! clk $end
$var wire 1 > isloadW $end
$var wire 32 v# pcplus4W [31:0] $end
$var wire 5 w# rd [4:0] $end
$var wire 5 x# rdW [4:0] $end
$var wire 32 y# readdataW [31:0] $end
$var wire 1 * regwrite $end
$var wire 1 ' regwriteW $end
$var wire 1 " rst $end
$var wire 32 z# resultW [31:0] $end
$scope module writeback_mux $end
$var wire 32 {# input1 [31:0] $end
$var wire 32 |# input2 [31:0] $end
$var wire 1 > selection_line $end
$var wire 32 }# out [31:0] $end
$upscope $end
$upscope $end
$upscope $end
$upscope $end
$enddefinitions $end
$comment Show the parameter values. $end
$dumpall
b1110 M"
b101011 L"
b1011 K"
b1010 J"
b1101 I"
b100011 H"
b10 G"
b101 F"
b1 E"
b110 D"
b111 C"
b11 B"
b100 A"
b1100 @"
b1001 ?"
b1000 >"
b0 ="
b1110 9"
b101000 8"
b101011 7"
b100011 6"
b100010 5"
b101011 4"
b1011 3"
b1010 2"
b101010 1"
b1101 0"
b100101 /"
b100111 ."
b11001 -"
b11000 ,"
b100011 +"
b11011 *"
b11010 )"
b101 ("
b1 '"
b110 &"
b111 %"
b11 $"
b100 #"
b1100 ""
b100100 !"
b100001 ~
b1001 }
b1000 |
b100000 {
$end
#0
$dumpvars
bx }#
bx |#
bx {#
bx z#
bx y#
bx x#
bx w#
bx v#
bx u#
b10000000 t#
bx s#
bx r#
bx q#
b10001001100 p#
bx o#
bx n#
bx m#
bx l#
bx k#
bx j#
bx i#
bx h#
bx g#
bx f#
bx e#
bx d#
bx c#
bx b#
b0 a#
b0 `#
bx _#
bx ^#
bx ]#
bx \#
bx [#
bx Z#
bx Y#
bx X#
bx W#
bx V#
bx U#
b100 T#
b10000000 S#
bx R#
bx Q#
0P#
bx O#
bx N#
bx M#
bx L#
bx K#
bx J#
bx I#
bx H#
bx G#
bx F#
bx E#
bx D#
bx C#
bx B#
b0 A#
bx @#
bx ?#
bx >#
bx =#
bx <#
b0 ;#
bx :#
bx 9#
bx 8#
bx 7#
bx 6#
bx 5#
bx 4#
bx 3#
bx 2#
bx 1#
bx 0#
bx /#
bx .#
bx -#
bx ,#
bx +#
bx *#
bx )#
bx (#
bx '#
bx &#
x%#
bx $#
bx ##
bx "#
bx !#
x~"
x}"
bx |"
bx {"
bx z"
bx y"
bx x"
bx w"
b0 v"
b0 u"
bx t"
bx s"
bx r"
bx q"
bx p"
bx o"
bx n"
bx m"
bx l"
bx k"
bx j"
bx i"
bx h"
bx g"
bx f"
bx e"
bx d"
bx c"
bx b"
bx a"
bx `"
bx _"
bx ^"
b100000 ]"
b0 \"
b0 ["
bx Z"
bx Y"
bx X"
bx W"
b0 V"
b1 U"
b100 T"
bx S"
bx R"
bx Q"
bx P"
bx O"
bx N"
bx <"
bx ;"
bx :"
bx z
bx y
bx x
bx w
bx v
xu
bx t
bx s
bx r
bx q
bx p
xo
xn
bx m
xl
bx k
bx j
bx i
bx h
xg
bx f
bx e
bx d
bx c
xb
xa
x`
bx _
x^
x]
b0 \
bx [
b0 Z
bx Y
bx X
bx W
bx V
bx U
xT
xS
bx R
bx Q
bx P
bx O
bx N
bx M
bx L
bx K
bx J
bx I
xH
bx G
b0 F
b0 E
bx D
bx C
xB
xA
x@
x?
x>
x=
bx <
x;
x:
x9
x8
bx 7
bx 6
bx 5
bx 4
bx 3
bx 2
bx 1
bx 0
bx /
bx .
bx -
bx ,
bx +
x*
x)
x(
x'
bx &
bx %
bx $
bx #
1"
0!
$end
#5000
b10 h
b10 :"
0`
0g
0a
0]
0^
0b
0S
0T
b0 i
b0 z
b0 N"
b0 O
b0 P"
b0 S"
b0 e
b0 _"
b0 f
b0 Q"
b0 |"
b0 6#
b0 +#
b0 y"
b0 ,#
b0 2#
b0 y
b0 x
b0 R"
b0 ^"
b0 X"
b0 W"
b0 ;"
b0 O"
b0 r"
b0 (#
b0 4#
b0 o"
b0 )#
b0 8#
b0 x"
b0 3#
b0 B#
b0 z"
b0 -#
b0 <#
0B
b0 s"
b0 /#
b0 t"
b0 .#
b0 {"
b0 0#
b100 K#
b100 Y#
b100 Z#
b0 r#
b0 &
b0 R
b0 Z"
b0 p"
b0 z#
b0 }#
b100 J#
b100 U#
b100 W#
b0 I#
b0 Q#
b0 V#
b0 [#
b0 5
b0 X
b0 G#
b0 N#
b0 C
b0 c
b0 <"
b0 F#
b0 M#
b0 3
b0 W
b0 H#
b0 O#
b0 <
b0 _
b0 m
b0 d"
b0 5#
b0 $
b0 P
b0 w
b0 m"
b0 ^#
b0 %
b0 Q
b0 v
b0 l"
b0 ]#
b0 2
b0 V
b0 s
b0 h"
b0 '#
b0 4
b0 M
b0 g"
b0 r
b0 .
b0 N
b0 j"
b0 t
b0 D
b0 d
b0 k
b0 c"
b0 1#
b0 7#
b0 6
b0 Y
b0 q
b0 f"
b0 ?#
b0 7
b0 [
b0 p
b0 e"
b0 9#
0=
0H
0;
0n
0@
0l
09
0o
0A
0)
0u
b0 I
b0 L
b0 a"
b0 *#
b0 j
b0 #
b0 n"
b0 h#
b0 q#
b0 &#
b0 G
b0 b"
b0 $#
b0 E#
b0 X#
b0 K
b0 `"
b0 :#
b0 @#
b0 b#
b0 o#
b0 ##
b0 1
b0 i"
b0 d#
b0 !#
b0 -
b0 k"
b0 "#
b0 \#
b0 f#
0:
0}"
0?
0%#
08
0~"
0(
0>
0'
0*
b0 ,
b0 U
b0 Y"
b0 x#
b0 /
b0 _#
b0 j#
b0 m#
b0 w#
b0 +
b0 q"
b0 =#
b0 C#
b0 g#
b0 n#
b0 y#
b0 |#
b0 J
b0 w"
b0 >#
b0 D#
b0 c#
b0 k#
b0 u#
b0 {#
b0 0
b0 e#
b0 v#
b0 l#
1!
#7000
b1000100010100000100000 L#
b1000100010100000100000 R#
1P#
0"
#10000
0!
#15000
1S
1T
b10 i
b10 z
b10 N"
b100000011000010000000000000110 L#
b100000011000010000000000000110 R#
b100010001010000010000000 f
b100010001010000010000000 Q"
b100010001010000010000000 O
b100010001010000010000000 P"
b100010001010000010000000 S"
b10100000100000 e
b10100000100000 _"
b101 Z
b101 ["
b100 \
b100 \"
b100000 x
b1000100010100000100000 R"
b10100000100000 ^"
b10 X"
b1 W"
b1000 K#
b1000 Y#
b1000 Z#
bx +
bx q"
bx =#
bx C#
bx g#
bx n#
bx y#
bx |#
b10 I
b10 L
b10 a"
b10 *#
b10 j
b1000100010100000100000 C
b1000100010100000100000 c
b1000100010100000100000 <"
b1000100010100000100000 F#
b1000100010100000100000 M#
b100 3
b100 W
b100 H#
b100 O#
b1000 J#
b1000 U#
b1000 W#
b100 I#
b100 Q#
b100 V#
b100 [#
1!
#20000
0!
#25000
1b
0T
b0 i
b0 z
b0 N"
b0 L#
b0 R#
b1100001000000000000011000 f
b1100001000000000000011000 Q"
b1100001000000000000011000 O
b1100001000000000000011000 P"
b1100001000000000000011000 S"
b110 e
b110 _"
b100 Z
b100 ["
b111 \
b111 \"
b10100 +#
b101 y"
b101 ,#
b101 2#
b1001 {"
b1001 0#
b1100 K#
b1100 Y#
b1100 Z#
b1000 y
b110 x
b11000010000000000000110 R"
b110 ^"
b1 X"
b11 W"
b1000 ;"
b1010000010000100 |"
b1010000010000100 6#
b1010000010000000 o"
b1010000010000000 )#
b1010000010000000 8#
b101 x"
b101 3#
b101 B#
b100 z"
b100 -#
b100 <#
b1100 J#
b1100 U#
b1100 W#
b1000 I#
b1000 Q#
b1000 V#
b1000 [#
b100 5
b100 X
b100 G#
b100 N#
b100000011000010000000000000110 C
b100000011000010000000000000110 c
b100000011000010000000000000110 <"
b100000011000010000000000000110 F#
b100000011000010000000000000110 M#
b1000 3
b1000 W
b1000 H#
b1000 O#
b100010001010000010000000 <
b100010001010000010000000 _
b100010001010000010000000 m
b100010001010000010000000 d"
b100010001010000010000000 5#
b10 $
b10 P
b10 w
b10 m"
b10 ^#
b1 %
b1 Q
b1 v
b1 l"
b1 ]#
b1010000010000100 r"
b1010000010000100 (#
b1010000010000100 4#
b100 2
b100 V
b100 s
b100 h"
b100 '#
b101 .
b101 N
b101 j"
b101 t
b10100000100000 D
b10100000100000 d
b10100000100000 k
b10100000100000 c"
b10100000100000 1#
b10100000100000 7#
b101 6
b101 Y
b101 q
b101 f"
b101 ?#
b100 7
b100 [
b100 p
b100 e"
b100 9#
1)
1u
1!
#30000
0!
#35000
0b
0S
b100001010011000000100010 L#
b100001010011000000100010 R#
b0 f
b0 Q"
b1101 {"
b1101 0#
b0 O
b0 P"
b0 S"
b0 e
b0 _"
b0 Z
b0 ["
b0 \
b0 \"
b1001 r#
b100000 |"
b100000 6#
b11000 o"
b11000 )#
b11000 8#
b100 x"
b100 3#
b100 B#
b111 z"
b111 -#
b111 <#
b101010 +#
b110 y"
b110 ,#
b110 2#
b0 y
b0 x
b0 R"
b0 ^"
b0 X"
b0 W"
b0 ;"
b10000 K#
b10000 Y#
b10000 Z#
b101 #
b101 n"
b101 h#
b101 q#
b101 &#
b1010000010000100 G
b1010000010000100 b"
b1010000010000100 $#
b1010000010000100 E#
b1010000010000100 X#
b1001 K
b1001 `"
b1001 :#
b1001 @#
b1001 b#
b1001 o#
b1001 ##
b100 1
b100 i"
b100 d#
b100 !#
b101 -
b101 k"
b101 "#
b101 \#
b101 f#
1(
b1100001000000000000011000 <
b1100001000000000000011000 _
b1100001000000000000011000 m
b1100001000000000000011000 d"
b1100001000000000000011000 5#
b1 $
b1 P
b1 w
b1 m"
b1 ^#
b11 %
b11 Q
b11 v
b11 l"
b11 ]#
b100000 r"
b100000 (#
b100000 4#
b1000 2
b1000 V
b1000 s
b1000 h"
b1000 '#
b100 4
b100 M
b100 g"
b100 r
b1 .
b1 N
b1 j"
b1 t
b110 D
b110 d
b110 k
b110 c"
b110 1#
b110 7#
b100 6
b100 Y
b100 q
b100 f"
b100 ?#
b111 7
b111 [
b111 p
b111 e"
b111 9#
1A
b1000 5
b1000 X
b1000 G#
b1000 N#
b0 C
b0 c
b0 <"
b0 F#
b0 M#
b1100 3
b1100 W
b1100 H#
b1100 O#
b10000 J#
b10000 U#
b10000 W#
b1100 I#
b1100 Q#
b1100 V#
b1100 [#
1!
#40000
0!
#45000
b110 h
b110 :"
b0 L#
b0 R#
1S
1T
b10 i
b10 z
b10 N"
b1001 U"
b10000101001100000010001000 f
b10000101001100000010001000 Q"
b10000101001100000010001000 O
b10000101001100000010001000 P"
b10000101001100000010001000 S"
b11000000100010 e
b11000000100010 _"
b1001 Z
b1001 ["
b1000 \
b1000 \"
b0 {"
b0 0#
b10100 K#
b10100 Y#
b10100 Z#
b100010 x
b100001010011000000100010 R"
b11000000100010 ^"
b101 X"
b100 W"
b1100 |"
b1100 6#
b0 o"
b0 )#
b0 8#
b0 x"
b0 3#
b0 B#
b0 z"
b0 -#
b0 <#
b0 +#
b0 y"
b0 ,#
b0 2#
b1101 r#
b1001 &
b1001 R
b1001 Z"
b1001 p"
b1001 z#
b1001 }#
b10100 J#
b10100 U#
b10100 W#
b10000 I#
b10000 Q#
b10000 V#
b10000 [#
b1100 5
b1100 X
b1100 G#
b1100 N#
b100001010011000000100010 C
b100001010011000000100010 c
b100001010011000000100010 <"
b100001010011000000100010 F#
b100001010011000000100010 M#
b10000 3
b10000 W
b10000 H#
b10000 O#
b0 <
b0 _
b0 m
b0 d"
b0 5#
b0 $
b0 P
b0 w
b0 m"
b0 ^#
b0 %
b0 Q
b0 v
b0 l"
b0 ]#
b1100 r"
b1100 (#
b1100 4#
b1100 2
b1100 V
b1100 s
b1100 h"
b1100 '#
b1000 4
b1000 M
b1000 g"
b1000 r
b0 .
b0 N
b0 j"
b0 t
b0 D
b0 d
b0 k
b0 c"
b0 1#
b0 7#
b0 6
b0 Y
b0 q
b0 f"
b0 ?#
b0 7
b0 [
b0 p
b0 e"
b0 9#
0A
0)
0u
b100 #
b100 n"
b100 h#
b100 q#
b100 &#
b100000 G
b100000 b"
b100000 $#
b100000 E#
b100000 X#
b1101 K
b1101 `"
b1101 :#
b1101 @#
b1101 b#
b1101 o#
b1101 ##
b1000 1
b1000 i"
b1000 d#
b1000 !#
b1 -
b1 k"
b1 "#
b1 \#
b1 f#
b1001 J
b1001 w"
b1001 >#
b1001 D#
b1001 c#
b1001 k#
b1001 u#
b1001 {#
b100 0
b100 e#
b100 v#
b100 l#
b101 ,
b101 U
b101 Y"
b101 x#
b101 /
b101 _#
b101 j#
b101 m#
b101 w#
1'
1*
1!
#50000
0!
#55000
b10 h
b10 :"
b1101 T"
0S
0T
b0 i
b0 z
b0 N"
b0 f
b0 Q"
b1001000 +#
b1001 y"
b1001 ,#
b1001 2#
b11111111111111111111111111111111 {"
b11111111111111111111111111111111 0#
b0 O
b0 P"
b0 S"
b0 e
b0 _"
b0 Z
b0 ["
b0 \
b0 \"
b1101 &
b1101 R
b1101 Z"
b1101 p"
b1101 z#
b1101 }#
b0 r#
b1100000010011000 |"
b1100000010011000 6#
b1100000010001000 o"
b1100000010001000 )#
b1100000010001000 8#
b1001 x"
b1001 3#
b1001 B#
b1000 z"
b1000 -#
b1000 <#
b0 x
b0 R"
b0 ^"
b0 X"
b0 W"
b11000 K#
b11000 Y#
b11000 Z#
b1101 J
b1101 w"
b1101 >#
b1101 D#
b1101 c#
b1101 k#
b1101 u#
b1101 {#
b1000 0
b1000 e#
b1000 v#
b1000 l#
b1 ,
b1 U
b1 Y"
b1 x#
b1 /
b1 _#
b1 j#
b1 m#
b1 w#
b0 #
b0 n"
b0 h#
b0 q#
b0 &#
b1100 G
b1100 b"
b1100 $#
b1100 E#
b1100 X#
b0 K
b0 `"
b0 :#
b0 @#
b0 b#
b0 o#
b0 ##
b1100 1
b1100 i"
b1100 d#
b1100 !#
b0 -
b0 k"
b0 "#
b0 \#
b0 f#
0(
b10000101001100000010001000 <
b10000101001100000010001000 _
b10000101001100000010001000 m
b10000101001100000010001000 d"
b10000101001100000010001000 5#
b101 $
b101 P
b101 w
b101 m"
b101 ^#
b100 %
b100 Q
b100 v
b100 l"
b100 ]#
b1100000010011000 r"
b1100000010011000 (#
b1100000010011000 4#
b10000 2
b10000 V
b10000 s
b10000 h"
b10000 '#
b1100 4
b1100 M
b1100 g"
b1100 r
b110 .
b110 N
b110 j"
b110 t
b11000000100010 D
b11000000100010 d
b11000000100010 k
b11000000100010 c"
b11000000100010 1#
b11000000100010 7#
b1001 6
b1001 Y
b1001 q
b1001 f"
b1001 ?#
b1000 7
b1000 [
b1000 p
b1000 e"
b1000 9#
1)
1u
b110 I
b110 L
b110 a"
b110 *#
b110 j
b10000 5
b10000 X
b10000 G#
b10000 N#
b0 C
b0 c
b0 <"
b0 F#
b0 M#
b10100 3
b10100 W
b10100 H#
b10100 O#
b11000 J#
b11000 U#
b11000 W#
b10100 I#
b10100 Q#
b10100 V#
b10100 [#
1!
#60000
0!
